OCTO> SELECT first_name, last_name, order_date, order_amount
OCTO> FROM customers c
OCTO> LEFT JOIN orders o
OCTO> ON c.customer_id = o.customer_id
OCTO> WHERE order_date is NULL;
James|Madison||
James|Monroe||
OCTO> 
