OCTO> SELECT c1.name FROM composite c1
OCTO> INNER JOIN composite c2 ON c2.name = c1.name
OCTO> INNER JOIN composite c3 ON c3.name = c1.name
OCTO> WHERE (c1.name LIKE "Name%") OR (c1.id1 < 10);
Name1
Name2
Name3
Name4
Name5
Name6
Name7
Name8
Name9
Name10
OCTO> 
;; This is a generated file; do not modify. Generated M code corresponds to below SQL query
;; ---------------------------------------------------------
;  SELECT c1.name FROM composite c1
;  INNER JOIN composite c2 ON c2.name = c1.name
;  INNER JOIN composite c3 ON c3.name = c1.name
;  WHERE (c1.name LIKE "Name%") OR (c1.id1 < 10);
;; ---------------------------------------------------------

octoPlan0(cursorId)
    DO octoPlan1(cursorId)
    DO octoPlan2(cursorId)
    QUIT

octoPlan1(cursorId)
    DO:'$DATA(^%ydboctoocto("xref_status","COMPOSITE","NAME")) ^%ydboctoXME0THqzTDPU94fIPMVYR4D(cursorId)
    NEW %ydboctoz KILL %ydboctocursor(cursorId,"keys",5,"","")
    SET %ydboctocursor(cursorId,"keys",1,"COMPOSITE","ID0")=""
    FOR  SET %ydboctocursor(cursorId,"keys",1,"COMPOSITE","ID0")=$ORDER(^composite(%ydboctocursor(cursorId,"keys",1,"COMPOSITE","ID0"))) QUIT:(%ydboctocursor(cursorId,"keys",1,"COMPOSITE","ID0")="")  DO
    . SET %ydboctocursor(cursorId,"keys",1,"COMPOSITE","ID1")=""
    . FOR  SET %ydboctocursor(cursorId,"keys",1,"COMPOSITE","ID1")=$ORDER(^composite(%ydboctocursor(cursorId,"keys",1,"COMPOSITE","ID0"),%ydboctocursor(cursorId,"keys",1,"COMPOSITE","ID1"))) QUIT:(%ydboctocursor(cursorId,"keys",1,"COMPOSITE","ID1")="")  DO
    . . SET %ydboctocursor(cursorId,"keys",1,"COMPOSITE","ID2")=""
    . . FOR  SET %ydboctocursor(cursorId,"keys",1,"COMPOSITE","ID2")=$ORDER(^composite(%ydboctocursor(cursorId,"keys",1,"COMPOSITE","ID0"),%ydboctocursor(cursorId,"keys",1,"COMPOSITE","ID1"),%ydboctocursor(cursorId,"keys",1,"COMPOSITE","ID2"))) QUIT:(%ydboctocursor(cursorId,"keys",1,"COMPOSITE","ID2")="")  DO
    . . . SET %ydboctocursor(cursorId,"keys",1,"COMPOSITE","ID3")=""
    . . . FOR  SET %ydboctocursor(cursorId,"keys",1,"COMPOSITE","ID3")=$ORDER(^composite(%ydboctocursor(cursorId,"keys",1,"COMPOSITE","ID0"),%ydboctocursor(cursorId,"keys",1,"COMPOSITE","ID1"),%ydboctocursor(cursorId,"keys",1,"COMPOSITE","ID2"),%ydboctocursor(cursorId,"keys",1,"COMPOSITE","ID3"))) QUIT:(%ydboctocursor(cursorId,"keys",1,"COMPOSITE","ID3")="")  DO
    . . . . SET %ydboctocursor(cursorId,"keys",1,"COMPOSITE","ID4")=""
    . . . . FOR  SET %ydboctocursor(cursorId,"keys",1,"COMPOSITE","ID4")=$ORDER(^composite(%ydboctocursor(cursorId,"keys",1,"COMPOSITE","ID0"),%ydboctocursor(cursorId,"keys",1,"COMPOSITE","ID1"),%ydboctocursor(cursorId,"keys",1,"COMPOSITE","ID2"),%ydboctocursor(cursorId,"keys",1,"COMPOSITE","ID3"),%ydboctocursor(cursorId,"keys",1,"COMPOSITE","ID4"))) QUIT:(%ydboctocursor(cursorId,"keys",1,"COMPOSITE","ID4")="")  DO
    . . . . . SET %ydboctocursor(cursorId,"keys",1,"COMPOSITE","ID5")=""
    . . . . . FOR  SET %ydboctocursor(cursorId,"keys",1,"COMPOSITE","ID5")=$ORDER(^composite(%ydboctocursor(cursorId,"keys",1,"COMPOSITE","ID0"),%ydboctocursor(cursorId,"keys",1,"COMPOSITE","ID1"),%ydboctocursor(cursorId,"keys",1,"COMPOSITE","ID2"),%ydboctocursor(cursorId,"keys",1,"COMPOSITE","ID3"),%ydboctocursor(cursorId,"keys",1,"COMPOSITE","ID4"),%ydboctocursor(cursorId,"keys",1,"COMPOSITE","ID5"))) QUIT:(%ydboctocursor(cursorId,"keys",1,"COMPOSITE","ID5")="")  DO
    . . . . . . SET %ydboctocursor(cursorId,"keys",1,"COMPOSITE","ID6")=""
    . . . . . . FOR  SET %ydboctocursor(cursorId,"keys",1,"COMPOSITE","ID6")=$ORDER(^composite(%ydboctocursor(cursorId,"keys",1,"COMPOSITE","ID0"),%ydboctocursor(cursorId,"keys",1,"COMPOSITE","ID1"),%ydboctocursor(cursorId,"keys",1,"COMPOSITE","ID2"),%ydboctocursor(cursorId,"keys",1,"COMPOSITE","ID3"),%ydboctocursor(cursorId,"keys",1,"COMPOSITE","ID4"),%ydboctocursor(cursorId,"keys",1,"COMPOSITE","ID5"),%ydboctocursor(cursorId,"keys",1,"COMPOSITE","ID6"))) QUIT:(%ydboctocursor(cursorId,"keys",1,"COMPOSITE","ID6")="")  DO
    . . . . . . . SET %ydboctocursor(cursorId,"keys",1,"COMPOSITE","ID7")=""
    . . . . . . . FOR  SET %ydboctocursor(cursorId,"keys",1,"COMPOSITE","ID7")=$ORDER(^composite(%ydboctocursor(cursorId,"keys",1,"COMPOSITE","ID0"),%ydboctocursor(cursorId,"keys",1,"COMPOSITE","ID1"),%ydboctocursor(cursorId,"keys",1,"COMPOSITE","ID2"),%ydboctocursor(cursorId,"keys",1,"COMPOSITE","ID3"),%ydboctocursor(cursorId,"keys",1,"COMPOSITE","ID4"),%ydboctocursor(cursorId,"keys",1,"COMPOSITE","ID5"),%ydboctocursor(cursorId,"keys",1,"COMPOSITE","ID6"),%ydboctocursor(cursorId,"keys",1,"COMPOSITE","ID7"))) QUIT:(%ydboctocursor(cursorId,"keys",1,"COMPOSITE","ID7")="")  DO
    . . . . . . . . SET %ydboctocursor(cursorId,"keys",2,"COMPOSITE","NAME")=$PIECE($GET(^composite(%ydboctocursor(cursorId,"keys",1,"COMPOSITE","ID0"),%ydboctocursor(cursorId,"keys",1,"COMPOSITE","ID1"),%ydboctocursor(cursorId,"keys",1,"COMPOSITE","ID2"),%ydboctocursor(cursorId,"keys",1,"COMPOSITE","ID3"),%ydboctocursor(cursorId,"keys",1,"COMPOSITE","ID4"),%ydboctocursor(cursorId,"keys",1,"COMPOSITE","ID5"),%ydboctocursor(cursorId,"keys",1,"COMPOSITE","ID6"),%ydboctocursor(cursorId,"keys",1,"COMPOSITE","ID7"))),"|",1) IF '$ZYISSQLNULL(%ydboctocursor(cursorId,"keys",2,"COMPOSITE","NAME")) IF $DATA(^%ydboctoxref("COMPOSITE","NAME",%ydboctocursor(cursorId,"keys",2,"COMPOSITE","NAME"))) DO
    . . . . . . . . . SET %ydboctocursor(cursorId,"keys",2,"COMPOSITE","ID0")=""
    . . . . . . . . . FOR  SET %ydboctocursor(cursorId,"keys",2,"COMPOSITE","ID0")=$ORDER(^%ydboctoxref("COMPOSITE","NAME",%ydboctocursor(cursorId,"keys",2,"COMPOSITE","NAME"),%ydboctocursor(cursorId,"keys",2,"COMPOSITE","ID0"))) QUIT:(%ydboctocursor(cursorId,"keys",2,"COMPOSITE","ID0")="")  DO
    . . . . . . . . . . SET %ydboctocursor(cursorId,"keys",2,"COMPOSITE","ID1")=""
    . . . . . . . . . . FOR  SET %ydboctocursor(cursorId,"keys",2,"COMPOSITE","ID1")=$ORDER(^%ydboctoxref("COMPOSITE","NAME",%ydboctocursor(cursorId,"keys",2,"COMPOSITE","NAME"),%ydboctocursor(cursorId,"keys",2,"COMPOSITE","ID0"),%ydboctocursor(cursorId,"keys",2,"COMPOSITE","ID1"))) QUIT:(%ydboctocursor(cursorId,"keys",2,"COMPOSITE","ID1")="")  DO
    . . . . . . . . . . . SET %ydboctocursor(cursorId,"keys",2,"COMPOSITE","ID2")=""
    . . . . . . . . . . . FOR  SET %ydboctocursor(cursorId,"keys",2,"COMPOSITE","ID2")=$ORDER(^%ydboctoxref("COMPOSITE","NAME",%ydboctocursor(cursorId,"keys",2,"COMPOSITE","NAME"),%ydboctocursor(cursorId,"keys",2,"COMPOSITE","ID0"),%ydboctocursor(cursorId,"keys",2,"COMPOSITE","ID1"),%ydboctocursor(cursorId,"keys",2,"COMPOSITE","ID2"))) QUIT:(%ydboctocursor(cursorId,"keys",2,"COMPOSITE","ID2")="")  DO
    . . . . . . . . . . . . SET %ydboctocursor(cursorId,"keys",2,"COMPOSITE","ID3")=""
    . . . . . . . . . . . . FOR  SET %ydboctocursor(cursorId,"keys",2,"COMPOSITE","ID3")=$ORDER(^%ydboctoxref("COMPOSITE","NAME",%ydboctocursor(cursorId,"keys",2,"COMPOSITE","NAME"),%ydboctocursor(cursorId,"keys",2,"COMPOSITE","ID0"),%ydboctocursor(cursorId,"keys",2,"COMPOSITE","ID1"),%ydboctocursor(cursorId,"keys",2,"COMPOSITE","ID2"),%ydboctocursor(cursorId,"keys",2,"COMPOSITE","ID3"))) QUIT:(%ydboctocursor(cursorId,"keys",2,"COMPOSITE","ID3")="")  DO
    . . . . . . . . . . . . . SET %ydboctocursor(cursorId,"keys",2,"COMPOSITE","ID4")=""
    . . . . . . . . . . . . . FOR  SET %ydboctocursor(cursorId,"keys",2,"COMPOSITE","ID4")=$ORDER(^%ydboctoxref("COMPOSITE","NAME",%ydboctocursor(cursorId,"keys",2,"COMPOSITE","NAME"),%ydboctocursor(cursorId,"keys",2,"COMPOSITE","ID0"),%ydboctocursor(cursorId,"keys",2,"COMPOSITE","ID1"),%ydboctocursor(cursorId,"keys",2,"COMPOSITE","ID2"),%ydboctocursor(cursorId,"keys",2,"COMPOSITE","ID3"),%ydboctocursor(cursorId,"keys",2,"COMPOSITE","ID4"))) QUIT:(%ydboctocursor(cursorId,"keys",2,"COMPOSITE","ID4")="")  DO
    . . . . . . . . . . . . . . SET %ydboctocursor(cursorId,"keys",2,"COMPOSITE","ID5")=""
    . . . . . . . . . . . . . . FOR  SET %ydboctocursor(cursorId,"keys",2,"COMPOSITE","ID5")=$ORDER(^%ydboctoxref("COMPOSITE","NAME",%ydboctocursor(cursorId,"keys",2,"COMPOSITE","NAME"),%ydboctocursor(cursorId,"keys",2,"COMPOSITE","ID0"),%ydboctocursor(cursorId,"keys",2,"COMPOSITE","ID1"),%ydboctocursor(cursorId,"keys",2,"COMPOSITE","ID2"),%ydboctocursor(cursorId,"keys",2,"COMPOSITE","ID3"),%ydboctocursor(cursorId,"keys",2,"COMPOSITE","ID4"),%ydboctocursor(cursorId,"keys",2,"COMPOSITE","ID5"))) QUIT:(%ydboctocursor(cursorId,"keys",2,"COMPOSITE","ID5")="")  DO
    . . . . . . . . . . . . . . . SET %ydboctocursor(cursorId,"keys",2,"COMPOSITE","ID6")=""
    . . . . . . . . . . . . . . . FOR  SET %ydboctocursor(cursorId,"keys",2,"COMPOSITE","ID6")=$ORDER(^%ydboctoxref("COMPOSITE","NAME",%ydboctocursor(cursorId,"keys",2,"COMPOSITE","NAME"),%ydboctocursor(cursorId,"keys",2,"COMPOSITE","ID0"),%ydboctocursor(cursorId,"keys",2,"COMPOSITE","ID1"),%ydboctocursor(cursorId,"keys",2,"COMPOSITE","ID2"),%ydboctocursor(cursorId,"keys",2,"COMPOSITE","ID3"),%ydboctocursor(cursorId,"keys",2,"COMPOSITE","ID4"),%ydboctocursor(cursorId,"keys",2,"COMPOSITE","ID5"),%ydboctocursor(cursorId,"keys",2,"COMPOSITE","ID6"))) QUIT:(%ydboctocursor(cursorId,"keys",2,"COMPOSITE","ID6")="")  DO
    . . . . . . . . . . . . . . . . SET %ydboctocursor(cursorId,"keys",2,"COMPOSITE","ID7")=""
    . . . . . . . . . . . . . . . . FOR  SET %ydboctocursor(cursorId,"keys",2,"COMPOSITE","ID7")=$ORDER(^%ydboctoxref("COMPOSITE","NAME",%ydboctocursor(cursorId,"keys",2,"COMPOSITE","NAME"),%ydboctocursor(cursorId,"keys",2,"COMPOSITE","ID0"),%ydboctocursor(cursorId,"keys",2,"COMPOSITE","ID1"),%ydboctocursor(cursorId,"keys",2,"COMPOSITE","ID2"),%ydboctocursor(cursorId,"keys",2,"COMPOSITE","ID3"),%ydboctocursor(cursorId,"keys",2,"COMPOSITE","ID4"),%ydboctocursor(cursorId,"keys",2,"COMPOSITE","ID5"),%ydboctocursor(cursorId,"keys",2,"COMPOSITE","ID6"),%ydboctocursor(cursorId,"keys",2,"COMPOSITE","ID7"))) QUIT:(%ydboctocursor(cursorId,"keys",2,"COMPOSITE","ID7")="")  DO
    . . . . . . . . . . . . . . . . . SET %ydboctocursor(cursorId,"keys",3,"COMPOSITE","NAME")=$PIECE($GET(^composite(%ydboctocursor(cursorId,"keys",1,"COMPOSITE","ID0"),%ydboctocursor(cursorId,"keys",1,"COMPOSITE","ID1"),%ydboctocursor(cursorId,"keys",1,"COMPOSITE","ID2"),%ydboctocursor(cursorId,"keys",1,"COMPOSITE","ID3"),%ydboctocursor(cursorId,"keys",1,"COMPOSITE","ID4"),%ydboctocursor(cursorId,"keys",1,"COMPOSITE","ID5"),%ydboctocursor(cursorId,"keys",1,"COMPOSITE","ID6"),%ydboctocursor(cursorId,"keys",1,"COMPOSITE","ID7"))),"|",1) IF '$ZYISSQLNULL(%ydboctocursor(cursorId,"keys",3,"COMPOSITE","NAME")) IF $DATA(^%ydboctoxref("COMPOSITE","NAME",%ydboctocursor(cursorId,"keys",3,"COMPOSITE","NAME"))) DO
    . . . . . . . . . . . . . . . . . . SET %ydboctocursor(cursorId,"keys",3,"COMPOSITE","ID0")=""
    . . . . . . . . . . . . . . . . . . FOR  SET %ydboctocursor(cursorId,"keys",3,"COMPOSITE","ID0")=$ORDER(^%ydboctoxref("COMPOSITE","NAME",%ydboctocursor(cursorId,"keys",3,"COMPOSITE","NAME"),%ydboctocursor(cursorId,"keys",3,"COMPOSITE","ID0"))) QUIT:(%ydboctocursor(cursorId,"keys",3,"COMPOSITE","ID0")="")  DO
    . . . . . . . . . . . . . . . . . . . SET %ydboctocursor(cursorId,"keys",3,"COMPOSITE","ID1")=""
    . . . . . . . . . . . . . . . . . . . FOR  SET %ydboctocursor(cursorId,"keys",3,"COMPOSITE","ID1")=$ORDER(^%ydboctoxref("COMPOSITE","NAME",%ydboctocursor(cursorId,"keys",3,"COMPOSITE","NAME"),%ydboctocursor(cursorId,"keys",3,"COMPOSITE","ID0"),%ydboctocursor(cursorId,"keys",3,"COMPOSITE","ID1"))) QUIT:(%ydboctocursor(cursorId,"keys",3,"COMPOSITE","ID1")="")  DO
    . . . . . . . . . . . . . . . . . . . . SET %ydboctocursor(cursorId,"keys",3,"COMPOSITE","ID2")=""
    . . . . . . . . . . . . . . . . . . . . FOR  SET %ydboctocursor(cursorId,"keys",3,"COMPOSITE","ID2")=$ORDER(^%ydboctoxref("COMPOSITE","NAME",%ydboctocursor(cursorId,"keys",3,"COMPOSITE","NAME"),%ydboctocursor(cursorId,"keys",3,"COMPOSITE","ID0"),%ydboctocursor(cursorId,"keys",3,"COMPOSITE","ID1"),%ydboctocursor(cursorId,"keys",3,"COMPOSITE","ID2"))) QUIT:(%ydboctocursor(cursorId,"keys",3,"COMPOSITE","ID2")="")  DO
    . . . . . . . . . . . . . . . . . . . . . SET %ydboctocursor(cursorId,"keys",3,"COMPOSITE","ID3")=""
    . . . . . . . . . . . . . . . . . . . . . FOR  SET %ydboctocursor(cursorId,"keys",3,"COMPOSITE","ID3")=$ORDER(^%ydboctoxref("COMPOSITE","NAME",%ydboctocursor(cursorId,"keys",3,"COMPOSITE","NAME"),%ydboctocursor(cursorId,"keys",3,"COMPOSITE","ID0"),%ydboctocursor(cursorId,"keys",3,"COMPOSITE","ID1"),%ydboctocursor(cursorId,"keys",3,"COMPOSITE","ID2"),%ydboctocursor(cursorId,"keys",3,"COMPOSITE","ID3"))) QUIT:(%ydboctocursor(cursorId,"keys",3,"COMPOSITE","ID3")="")  DO
    . . . . . . . . . . . . . . . . . . . . . . SET %ydboctocursor(cursorId,"keys",3,"COMPOSITE","ID4")=""
    . . . . . . . . . . . . . . . . . . . . . . FOR  SET %ydboctocursor(cursorId,"keys",3,"COMPOSITE","ID4")=$ORDER(^%ydboctoxref("COMPOSITE","NAME",%ydboctocursor(cursorId,"keys",3,"COMPOSITE","NAME"),%ydboctocursor(cursorId,"keys",3,"COMPOSITE","ID0"),%ydboctocursor(cursorId,"keys",3,"COMPOSITE","ID1"),%ydboctocursor(cursorId,"keys",3,"COMPOSITE","ID2"),%ydboctocursor(cursorId,"keys",3,"COMPOSITE","ID3"),%ydboctocursor(cursorId,"keys",3,"COMPOSITE","ID4"))) QUIT:(%ydboctocursor(cursorId,"keys",3,"COMPOSITE","ID4")="")  DO
    . . . . . . . . . . . . . . . . . . . . . . . SET %ydboctocursor(cursorId,"keys",3,"COMPOSITE","ID5")=""
    . . . . . . . . . . . . . . . . . . . . . . . FOR  SET %ydboctocursor(cursorId,"keys",3,"COMPOSITE","ID5")=$ORDER(^%ydboctoxref("COMPOSITE","NAME",%ydboctocursor(cursorId,"keys",3,"COMPOSITE","NAME"),%ydboctocursor(cursorId,"keys",3,"COMPOSITE","ID0"),%ydboctocursor(cursorId,"keys",3,"COMPOSITE","ID1"),%ydboctocursor(cursorId,"keys",3,"COMPOSITE","ID2"),%ydboctocursor(cursorId,"keys",3,"COMPOSITE","ID3"),%ydboctocursor(cursorId,"keys",3,"COMPOSITE","ID4"),%ydboctocursor(cursorId,"keys",3,"COMPOSITE","ID5"))) QUIT:(%ydboctocursor(cursorId,"keys",3,"COMPOSITE","ID5")="")  DO
    . . . . . . . . . . . . . . . . . . . . . . . . SET %ydboctocursor(cursorId,"keys",3,"COMPOSITE","ID6")=""
    . . . . . . . . . . . . . . . . . . . . . . . . FOR  SET %ydboctocursor(cursorId,"keys",3,"COMPOSITE","ID6")=$ORDER(^%ydboctoxref("COMPOSITE","NAME",%ydboctocursor(cursorId,"keys",3,"COMPOSITE","NAME"),%ydboctocursor(cursorId,"keys",3,"COMPOSITE","ID0"),%ydboctocursor(cursorId,"keys",3,"COMPOSITE","ID1"),%ydboctocursor(cursorId,"keys",3,"COMPOSITE","ID2"),%ydboctocursor(cursorId,"keys",3,"COMPOSITE","ID3"),%ydboctocursor(cursorId,"keys",3,"COMPOSITE","ID4"),%ydboctocursor(cursorId,"keys",3,"COMPOSITE","ID5"),%ydboctocursor(cursorId,"keys",3,"COMPOSITE","ID6"))) QUIT:(%ydboctocursor(cursorId,"keys",3,"COMPOSITE","ID6")="")  DO
    . . . . . . . . . . . . . . . . . . . . . . . . . SET %ydboctocursor(cursorId,"keys",3,"COMPOSITE","ID7")=""
    . . . . . . . . . . . . . . . . . . . . . . . . . FOR  SET %ydboctocursor(cursorId,"keys",3,"COMPOSITE","ID7")=$ORDER(^%ydboctoxref("COMPOSITE","NAME",%ydboctocursor(cursorId,"keys",3,"COMPOSITE","NAME"),%ydboctocursor(cursorId,"keys",3,"COMPOSITE","ID0"),%ydboctocursor(cursorId,"keys",3,"COMPOSITE","ID1"),%ydboctocursor(cursorId,"keys",3,"COMPOSITE","ID2"),%ydboctocursor(cursorId,"keys",3,"COMPOSITE","ID3"),%ydboctocursor(cursorId,"keys",3,"COMPOSITE","ID4"),%ydboctocursor(cursorId,"keys",3,"COMPOSITE","ID5"),%ydboctocursor(cursorId,"keys",3,"COMPOSITE","ID6"),%ydboctocursor(cursorId,"keys",3,"COMPOSITE","ID7"))) QUIT:(%ydboctocursor(cursorId,"keys",3,"COMPOSITE","ID7")="")  DO
    . . . . . . . . . . . . . . . . . . . . . . . . . . NEW %ydboctobool SET %ydboctobool=1
    . . . . . . . . . . . . . . . . . . . . . . . . . . SET %ydboctobool=$$regexmatch^%ydboctoplanhelpers($PIECE($GET(^composite(%ydboctocursor(cursorId,"keys",1,"COMPOSITE","ID0"),%ydboctocursor(cursorId,"keys",1,"COMPOSITE","ID1"),%ydboctocursor(cursorId,"keys",1,"COMPOSITE","ID2"),%ydboctocursor(cursorId,"keys",1,"COMPOSITE","ID3"),%ydboctocursor(cursorId,"keys",1,"COMPOSITE","ID4"),%ydboctocursor(cursorId,"keys",1,"COMPOSITE","ID5"),%ydboctocursor(cursorId,"keys",1,"COMPOSITE","ID6"),%ydboctocursor(cursorId,"keys",1,"COMPOSITE","ID7"))),"|",1),$GET(%ydboctocursor(cursorId,"parameters",4)),1)
    . . . . . . . . . . . . . . . . . . . . . . . . . . SET %ydboctobool=%ydboctobool&('$DATA(%ydboctozduplicate(5,%ydboctocursor(cursorId,"keys",1,"COMPOSITE","ID0"),%ydboctocursor(cursorId,"keys",1,"COMPOSITE","ID1"),%ydboctocursor(cursorId,"keys",1,"COMPOSITE","ID2"),%ydboctocursor(cursorId,"keys",1,"COMPOSITE","ID3"),%ydboctocursor(cursorId,"keys",1,"COMPOSITE","ID4"),%ydboctocursor(cursorId,"keys",1,"COMPOSITE","ID5"),%ydboctocursor(cursorId,"keys",1,"COMPOSITE","ID6"),%ydboctocursor(cursorId,"keys",1,"COMPOSITE","ID7"),%ydboctocursor(cursorId,"keys",2,"COMPOSITE","ID0"),%ydboctocursor(cursorId,"keys",2,"COMPOSITE","ID1"),%ydboctocursor(cursorId,"keys",2,"COMPOSITE","ID2"),%ydboctocursor(cursorId,"keys",2,"COMPOSITE","ID3"),%ydboctocursor(cursorId,"keys",2,"COMPOSITE","ID4"),%ydboctocursor(cursorId,"keys",2,"COMPOSITE","ID5"),%ydboctocursor(cursorId,"keys",2,"COMPOSITE","ID6"),%ydboctocursor(cursorId,"keys",2,"COMPOSITE","ID7"),%ydboctocursor(cursorId,"keys",3,"COMPOSITE","ID0"),%ydboctocursor(cursorId,"keys",3,"COMPOSITE","ID1"),%ydboctocursor(cursorId,"keys",3,"COMPOSITE","ID2"),%ydboctocursor(cursorId,"keys",3,"COMPOSITE","ID3"),%ydboctocursor(cursorId,"keys",3,"COMPOSITE","ID4"),%ydboctocursor(cursorId,"keys",3,"COMPOSITE","ID5"),%ydboctocursor(cursorId,"keys",3,"COMPOSITE","ID6"),%ydboctocursor(cursorId,"keys",3,"COMPOSITE","ID7"))))
    . . . . . . . . . . . . . . . . . . . . . . . . . . IF %ydboctobool DO
    . . . . . . . . . . . . . . . . . . . . . . . . . . . SET:1&$INCREMENT(%ydboctocursor(cursorId,"keys",5,"","")) %ydboctoz=42
    . . . . . . . . . . . . . . . . . . . . . . . . . . . SET %ydboctocursor(cursorId,"keys",5,"","",%ydboctocursor(cursorId,"keys",5,"",""))=$$str2mval^%ydboctoplanhelpers($PIECE($GET(^composite(%ydboctocursor(cursorId,"keys",1,"COMPOSITE","ID0"),%ydboctocursor(cursorId,"keys",1,"COMPOSITE","ID1"),%ydboctocursor(cursorId,"keys",1,"COMPOSITE","ID2"),%ydboctocursor(cursorId,"keys",1,"COMPOSITE","ID3"),%ydboctocursor(cursorId,"keys",1,"COMPOSITE","ID4"),%ydboctocursor(cursorId,"keys",1,"COMPOSITE","ID5"),%ydboctocursor(cursorId,"keys",1,"COMPOSITE","ID6"),%ydboctocursor(cursorId,"keys",1,"COMPOSITE","ID7"))),"|",1))
    . . . . . . . . . . . . . . . . . . . . . . . . . . . SET %ydboctozduplicate(5,%ydboctocursor(cursorId,"keys",1,"COMPOSITE","ID0"),%ydboctocursor(cursorId,"keys",1,"COMPOSITE","ID1"),%ydboctocursor(cursorId,"keys",1,"COMPOSITE","ID2"),%ydboctocursor(cursorId,"keys",1,"COMPOSITE","ID3"),%ydboctocursor(cursorId,"keys",1,"COMPOSITE","ID4"),%ydboctocursor(cursorId,"keys",1,"COMPOSITE","ID5"),%ydboctocursor(cursorId,"keys",1,"COMPOSITE","ID6"),%ydboctocursor(cursorId,"keys",1,"COMPOSITE","ID7"),%ydboctocursor(cursorId,"keys",2,"COMPOSITE","ID0"),%ydboctocursor(cursorId,"keys",2,"COMPOSITE","ID1"),%ydboctocursor(cursorId,"keys",2,"COMPOSITE","ID2"),%ydboctocursor(cursorId,"keys",2,"COMPOSITE","ID3"),%ydboctocursor(cursorId,"keys",2,"COMPOSITE","ID4"),%ydboctocursor(cursorId,"keys",2,"COMPOSITE","ID5"),%ydboctocursor(cursorId,"keys",2,"COMPOSITE","ID6"),%ydboctocursor(cursorId,"keys",2,"COMPOSITE","ID7"),%ydboctocursor(cursorId,"keys",3,"COMPOSITE","ID0"),%ydboctocursor(cursorId,"keys",3,"COMPOSITE","ID1"),%ydboctocursor(cursorId,"keys",3,"COMPOSITE","ID2"),%ydboctocursor(cursorId,"keys",3,"COMPOSITE","ID3"),%ydboctocursor(cursorId,"keys",3,"COMPOSITE","ID4"),%ydboctocursor(cursorId,"keys",3,"COMPOSITE","ID5"),%ydboctocursor(cursorId,"keys",3,"COMPOSITE","ID6"),%ydboctocursor(cursorId,"keys",3,"COMPOSITE","ID7"))=1
    QUIT

octoPlan2(cursorId)
    DO:'$DATA(^%ydboctoocto("xref_status","COMPOSITE","NAME")) ^%ydboctoXME0THqzTDPU94fIPMVYR4D(cursorId)
    NEW %ydboctoz
    SET %ydboctocursor(cursorId,"keys",1,"COMPOSITE","ID0")=""
    FOR  SET %ydboctocursor(cursorId,"keys",1,"COMPOSITE","ID0")=$ORDER(^composite(%ydboctocursor(cursorId,"keys",1,"COMPOSITE","ID0"))) QUIT:(%ydboctocursor(cursorId,"keys",1,"COMPOSITE","ID0")="")  DO
    . SET %ydboctocursor(cursorId,"keys",1,"COMPOSITE","ID1")=""
    . FOR  SET %ydboctocursor(cursorId,"keys",1,"COMPOSITE","ID1")=$ORDER(^composite(%ydboctocursor(cursorId,"keys",1,"COMPOSITE","ID0"),%ydboctocursor(cursorId,"keys",1,"COMPOSITE","ID1"))) QUIT:(%ydboctocursor(cursorId,"keys",1,"COMPOSITE","ID1")="")  DO
    . . SET %ydboctocursor(cursorId,"keys",1,"COMPOSITE","ID2")=""
    . . FOR  SET %ydboctocursor(cursorId,"keys",1,"COMPOSITE","ID2")=$ORDER(^composite(%ydboctocursor(cursorId,"keys",1,"COMPOSITE","ID0"),%ydboctocursor(cursorId,"keys",1,"COMPOSITE","ID1"),%ydboctocursor(cursorId,"keys",1,"COMPOSITE","ID2"))) QUIT:(%ydboctocursor(cursorId,"keys",1,"COMPOSITE","ID2")="")  DO
    . . . SET %ydboctocursor(cursorId,"keys",1,"COMPOSITE","ID3")=""
    . . . FOR  SET %ydboctocursor(cursorId,"keys",1,"COMPOSITE","ID3")=$ORDER(^composite(%ydboctocursor(cursorId,"keys",1,"COMPOSITE","ID0"),%ydboctocursor(cursorId,"keys",1,"COMPOSITE","ID1"),%ydboctocursor(cursorId,"keys",1,"COMPOSITE","ID2"),%ydboctocursor(cursorId,"keys",1,"COMPOSITE","ID3"))) QUIT:(%ydboctocursor(cursorId,"keys",1,"COMPOSITE","ID3")="")  DO
    . . . . SET %ydboctocursor(cursorId,"keys",1,"COMPOSITE","ID4")=""
    . . . . FOR  SET %ydboctocursor(cursorId,"keys",1,"COMPOSITE","ID4")=$ORDER(^composite(%ydboctocursor(cursorId,"keys",1,"COMPOSITE","ID0"),%ydboctocursor(cursorId,"keys",1,"COMPOSITE","ID1"),%ydboctocursor(cursorId,"keys",1,"COMPOSITE","ID2"),%ydboctocursor(cursorId,"keys",1,"COMPOSITE","ID3"),%ydboctocursor(cursorId,"keys",1,"COMPOSITE","ID4"))) QUIT:(%ydboctocursor(cursorId,"keys",1,"COMPOSITE","ID4")="")  DO
    . . . . . SET %ydboctocursor(cursorId,"keys",1,"COMPOSITE","ID5")=""
    . . . . . FOR  SET %ydboctocursor(cursorId,"keys",1,"COMPOSITE","ID5")=$ORDER(^composite(%ydboctocursor(cursorId,"keys",1,"COMPOSITE","ID0"),%ydboctocursor(cursorId,"keys",1,"COMPOSITE","ID1"),%ydboctocursor(cursorId,"keys",1,"COMPOSITE","ID2"),%ydboctocursor(cursorId,"keys",1,"COMPOSITE","ID3"),%ydboctocursor(cursorId,"keys",1,"COMPOSITE","ID4"),%ydboctocursor(cursorId,"keys",1,"COMPOSITE","ID5"))) QUIT:(%ydboctocursor(cursorId,"keys",1,"COMPOSITE","ID5")="")  DO
    . . . . . . SET %ydboctocursor(cursorId,"keys",1,"COMPOSITE","ID6")=""
    . . . . . . FOR  SET %ydboctocursor(cursorId,"keys",1,"COMPOSITE","ID6")=$ORDER(^composite(%ydboctocursor(cursorId,"keys",1,"COMPOSITE","ID0"),%ydboctocursor(cursorId,"keys",1,"COMPOSITE","ID1"),%ydboctocursor(cursorId,"keys",1,"COMPOSITE","ID2"),%ydboctocursor(cursorId,"keys",1,"COMPOSITE","ID3"),%ydboctocursor(cursorId,"keys",1,"COMPOSITE","ID4"),%ydboctocursor(cursorId,"keys",1,"COMPOSITE","ID5"),%ydboctocursor(cursorId,"keys",1,"COMPOSITE","ID6"))) QUIT:(%ydboctocursor(cursorId,"keys",1,"COMPOSITE","ID6")="")  DO
    . . . . . . . SET %ydboctocursor(cursorId,"keys",1,"COMPOSITE","ID7")=""
    . . . . . . . FOR  SET %ydboctocursor(cursorId,"keys",1,"COMPOSITE","ID7")=$ORDER(^composite(%ydboctocursor(cursorId,"keys",1,"COMPOSITE","ID0"),%ydboctocursor(cursorId,"keys",1,"COMPOSITE","ID1"),%ydboctocursor(cursorId,"keys",1,"COMPOSITE","ID2"),%ydboctocursor(cursorId,"keys",1,"COMPOSITE","ID3"),%ydboctocursor(cursorId,"keys",1,"COMPOSITE","ID4"),%ydboctocursor(cursorId,"keys",1,"COMPOSITE","ID5"),%ydboctocursor(cursorId,"keys",1,"COMPOSITE","ID6"),%ydboctocursor(cursorId,"keys",1,"COMPOSITE","ID7"))) QUIT:(%ydboctocursor(cursorId,"keys",1,"COMPOSITE","ID7")="")  DO
    . . . . . . . . SET %ydboctocursor(cursorId,"keys",2,"COMPOSITE","NAME")=$PIECE($GET(^composite(%ydboctocursor(cursorId,"keys",1,"COMPOSITE","ID0"),%ydboctocursor(cursorId,"keys",1,"COMPOSITE","ID1"),%ydboctocursor(cursorId,"keys",1,"COMPOSITE","ID2"),%ydboctocursor(cursorId,"keys",1,"COMPOSITE","ID3"),%ydboctocursor(cursorId,"keys",1,"COMPOSITE","ID4"),%ydboctocursor(cursorId,"keys",1,"COMPOSITE","ID5"),%ydboctocursor(cursorId,"keys",1,"COMPOSITE","ID6"),%ydboctocursor(cursorId,"keys",1,"COMPOSITE","ID7"))),"|",1) IF '$ZYISSQLNULL(%ydboctocursor(cursorId,"keys",2,"COMPOSITE","NAME")) IF $DATA(^%ydboctoxref("COMPOSITE","NAME",%ydboctocursor(cursorId,"keys",2,"COMPOSITE","NAME"))) DO
    . . . . . . . . . SET %ydboctocursor(cursorId,"keys",2,"COMPOSITE","ID0")=""
    . . . . . . . . . FOR  SET %ydboctocursor(cursorId,"keys",2,"COMPOSITE","ID0")=$ORDER(^%ydboctoxref("COMPOSITE","NAME",%ydboctocursor(cursorId,"keys",2,"COMPOSITE","NAME"),%ydboctocursor(cursorId,"keys",2,"COMPOSITE","ID0"))) QUIT:(%ydboctocursor(cursorId,"keys",2,"COMPOSITE","ID0")="")  DO
    . . . . . . . . . . SET %ydboctocursor(cursorId,"keys",2,"COMPOSITE","ID1")=""
    . . . . . . . . . . FOR  SET %ydboctocursor(cursorId,"keys",2,"COMPOSITE","ID1")=$ORDER(^%ydboctoxref("COMPOSITE","NAME",%ydboctocursor(cursorId,"keys",2,"COMPOSITE","NAME"),%ydboctocursor(cursorId,"keys",2,"COMPOSITE","ID0"),%ydboctocursor(cursorId,"keys",2,"COMPOSITE","ID1"))) QUIT:(%ydboctocursor(cursorId,"keys",2,"COMPOSITE","ID1")="")  DO
    . . . . . . . . . . . SET %ydboctocursor(cursorId,"keys",2,"COMPOSITE","ID2")=""
    . . . . . . . . . . . FOR  SET %ydboctocursor(cursorId,"keys",2,"COMPOSITE","ID2")=$ORDER(^%ydboctoxref("COMPOSITE","NAME",%ydboctocursor(cursorId,"keys",2,"COMPOSITE","NAME"),%ydboctocursor(cursorId,"keys",2,"COMPOSITE","ID0"),%ydboctocursor(cursorId,"keys",2,"COMPOSITE","ID1"),%ydboctocursor(cursorId,"keys",2,"COMPOSITE","ID2"))) QUIT:(%ydboctocursor(cursorId,"keys",2,"COMPOSITE","ID2")="")  DO
    . . . . . . . . . . . . SET %ydboctocursor(cursorId,"keys",2,"COMPOSITE","ID3")=""
    . . . . . . . . . . . . FOR  SET %ydboctocursor(cursorId,"keys",2,"COMPOSITE","ID3")=$ORDER(^%ydboctoxref("COMPOSITE","NAME",%ydboctocursor(cursorId,"keys",2,"COMPOSITE","NAME"),%ydboctocursor(cursorId,"keys",2,"COMPOSITE","ID0"),%ydboctocursor(cursorId,"keys",2,"COMPOSITE","ID1"),%ydboctocursor(cursorId,"keys",2,"COMPOSITE","ID2"),%ydboctocursor(cursorId,"keys",2,"COMPOSITE","ID3"))) QUIT:(%ydboctocursor(cursorId,"keys",2,"COMPOSITE","ID3")="")  DO
    . . . . . . . . . . . . . SET %ydboctocursor(cursorId,"keys",2,"COMPOSITE","ID4")=""
    . . . . . . . . . . . . . FOR  SET %ydboctocursor(cursorId,"keys",2,"COMPOSITE","ID4")=$ORDER(^%ydboctoxref("COMPOSITE","NAME",%ydboctocursor(cursorId,"keys",2,"COMPOSITE","NAME"),%ydboctocursor(cursorId,"keys",2,"COMPOSITE","ID0"),%ydboctocursor(cursorId,"keys",2,"COMPOSITE","ID1"),%ydboctocursor(cursorId,"keys",2,"COMPOSITE","ID2"),%ydboctocursor(cursorId,"keys",2,"COMPOSITE","ID3"),%ydboctocursor(cursorId,"keys",2,"COMPOSITE","ID4"))) QUIT:(%ydboctocursor(cursorId,"keys",2,"COMPOSITE","ID4")="")  DO
    . . . . . . . . . . . . . . SET %ydboctocursor(cursorId,"keys",2,"COMPOSITE","ID5")=""
    . . . . . . . . . . . . . . FOR  SET %ydboctocursor(cursorId,"keys",2,"COMPOSITE","ID5")=$ORDER(^%ydboctoxref("COMPOSITE","NAME",%ydboctocursor(cursorId,"keys",2,"COMPOSITE","NAME"),%ydboctocursor(cursorId,"keys",2,"COMPOSITE","ID0"),%ydboctocursor(cursorId,"keys",2,"COMPOSITE","ID1"),%ydboctocursor(cursorId,"keys",2,"COMPOSITE","ID2"),%ydboctocursor(cursorId,"keys",2,"COMPOSITE","ID3"),%ydboctocursor(cursorId,"keys",2,"COMPOSITE","ID4"),%ydboctocursor(cursorId,"keys",2,"COMPOSITE","ID5"))) QUIT:(%ydboctocursor(cursorId,"keys",2,"COMPOSITE","ID5")="")  DO
    . . . . . . . . . . . . . . . SET %ydboctocursor(cursorId,"keys",2,"COMPOSITE","ID6")=""
    . . . . . . . . . . . . . . . FOR  SET %ydboctocursor(cursorId,"keys",2,"COMPOSITE","ID6")=$ORDER(^%ydboctoxref("COMPOSITE","NAME",%ydboctocursor(cursorId,"keys",2,"COMPOSITE","NAME"),%ydboctocursor(cursorId,"keys",2,"COMPOSITE","ID0"),%ydboctocursor(cursorId,"keys",2,"COMPOSITE","ID1"),%ydboctocursor(cursorId,"keys",2,"COMPOSITE","ID2"),%ydboctocursor(cursorId,"keys",2,"COMPOSITE","ID3"),%ydboctocursor(cursorId,"keys",2,"COMPOSITE","ID4"),%ydboctocursor(cursorId,"keys",2,"COMPOSITE","ID5"),%ydboctocursor(cursorId,"keys",2,"COMPOSITE","ID6"))) QUIT:(%ydboctocursor(cursorId,"keys",2,"COMPOSITE","ID6")="")  DO
    . . . . . . . . . . . . . . . . SET %ydboctocursor(cursorId,"keys",2,"COMPOSITE","ID7")=""
    . . . . . . . . . . . . . . . . FOR  SET %ydboctocursor(cursorId,"keys",2,"COMPOSITE","ID7")=$ORDER(^%ydboctoxref("COMPOSITE","NAME",%ydboctocursor(cursorId,"keys",2,"COMPOSITE","NAME"),%ydboctocursor(cursorId,"keys",2,"COMPOSITE","ID0"),%ydboctocursor(cursorId,"keys",2,"COMPOSITE","ID1"),%ydboctocursor(cursorId,"keys",2,"COMPOSITE","ID2"),%ydboctocursor(cursorId,"keys",2,"COMPOSITE","ID3"),%ydboctocursor(cursorId,"keys",2,"COMPOSITE","ID4"),%ydboctocursor(cursorId,"keys",2,"COMPOSITE","ID5"),%ydboctocursor(cursorId,"keys",2,"COMPOSITE","ID6"),%ydboctocursor(cursorId,"keys",2,"COMPOSITE","ID7"))) QUIT:(%ydboctocursor(cursorId,"keys",2,"COMPOSITE","ID7")="")  DO
    . . . . . . . . . . . . . . . . . SET %ydboctocursor(cursorId,"keys",3,"COMPOSITE","NAME")=$PIECE($GET(^composite(%ydboctocursor(cursorId,"keys",1,"COMPOSITE","ID0"),%ydboctocursor(cursorId,"keys",1,"COMPOSITE","ID1"),%ydboctocursor(cursorId,"keys",1,"COMPOSITE","ID2"),%ydboctocursor(cursorId,"keys",1,"COMPOSITE","ID3"),%ydboctocursor(cursorId,"keys",1,"COMPOSITE","ID4"),%ydboctocursor(cursorId,"keys",1,"COMPOSITE","ID5"),%ydboctocursor(cursorId,"keys",1,"COMPOSITE","ID6"),%ydboctocursor(cursorId,"keys",1,"COMPOSITE","ID7"))),"|",1) IF '$ZYISSQLNULL(%ydboctocursor(cursorId,"keys",3,"COMPOSITE","NAME")) IF $DATA(^%ydboctoxref("COMPOSITE","NAME",%ydboctocursor(cursorId,"keys",3,"COMPOSITE","NAME"))) DO
    . . . . . . . . . . . . . . . . . . SET %ydboctocursor(cursorId,"keys",3,"COMPOSITE","ID0")=""
    . . . . . . . . . . . . . . . . . . FOR  SET %ydboctocursor(cursorId,"keys",3,"COMPOSITE","ID0")=$ORDER(^%ydboctoxref("COMPOSITE","NAME",%ydboctocursor(cursorId,"keys",3,"COMPOSITE","NAME"),%ydboctocursor(cursorId,"keys",3,"COMPOSITE","ID0"))) QUIT:(%ydboctocursor(cursorId,"keys",3,"COMPOSITE","ID0")="")  DO
    . . . . . . . . . . . . . . . . . . . SET %ydboctocursor(cursorId,"keys",3,"COMPOSITE","ID1")=""
    . . . . . . . . . . . . . . . . . . . FOR  SET %ydboctocursor(cursorId,"keys",3,"COMPOSITE","ID1")=$ORDER(^%ydboctoxref("COMPOSITE","NAME",%ydboctocursor(cursorId,"keys",3,"COMPOSITE","NAME"),%ydboctocursor(cursorId,"keys",3,"COMPOSITE","ID0"),%ydboctocursor(cursorId,"keys",3,"COMPOSITE","ID1"))) QUIT:(%ydboctocursor(cursorId,"keys",3,"COMPOSITE","ID1")="")  DO
    . . . . . . . . . . . . . . . . . . . . SET %ydboctocursor(cursorId,"keys",3,"COMPOSITE","ID2")=""
    . . . . . . . . . . . . . . . . . . . . FOR  SET %ydboctocursor(cursorId,"keys",3,"COMPOSITE","ID2")=$ORDER(^%ydboctoxref("COMPOSITE","NAME",%ydboctocursor(cursorId,"keys",3,"COMPOSITE","NAME"),%ydboctocursor(cursorId,"keys",3,"COMPOSITE","ID0"),%ydboctocursor(cursorId,"keys",3,"COMPOSITE","ID1"),%ydboctocursor(cursorId,"keys",3,"COMPOSITE","ID2"))) QUIT:(%ydboctocursor(cursorId,"keys",3,"COMPOSITE","ID2")="")  DO
    . . . . . . . . . . . . . . . . . . . . . SET %ydboctocursor(cursorId,"keys",3,"COMPOSITE","ID3")=""
    . . . . . . . . . . . . . . . . . . . . . FOR  SET %ydboctocursor(cursorId,"keys",3,"COMPOSITE","ID3")=$ORDER(^%ydboctoxref("COMPOSITE","NAME",%ydboctocursor(cursorId,"keys",3,"COMPOSITE","NAME"),%ydboctocursor(cursorId,"keys",3,"COMPOSITE","ID0"),%ydboctocursor(cursorId,"keys",3,"COMPOSITE","ID1"),%ydboctocursor(cursorId,"keys",3,"COMPOSITE","ID2"),%ydboctocursor(cursorId,"keys",3,"COMPOSITE","ID3"))) QUIT:(%ydboctocursor(cursorId,"keys",3,"COMPOSITE","ID3")="")  DO
    . . . . . . . . . . . . . . . . . . . . . . SET %ydboctocursor(cursorId,"keys",3,"COMPOSITE","ID4")=""
    . . . . . . . . . . . . . . . . . . . . . . FOR  SET %ydboctocursor(cursorId,"keys",3,"COMPOSITE","ID4")=$ORDER(^%ydboctoxref("COMPOSITE","NAME",%ydboctocursor(cursorId,"keys",3,"COMPOSITE","NAME"),%ydboctocursor(cursorId,"keys",3,"COMPOSITE","ID0"),%ydboctocursor(cursorId,"keys",3,"COMPOSITE","ID1"),%ydboctocursor(cursorId,"keys",3,"COMPOSITE","ID2"),%ydboctocursor(cursorId,"keys",3,"COMPOSITE","ID3"),%ydboctocursor(cursorId,"keys",3,"COMPOSITE","ID4"))) QUIT:(%ydboctocursor(cursorId,"keys",3,"COMPOSITE","ID4")="")  DO
    . . . . . . . . . . . . . . . . . . . . . . . SET %ydboctocursor(cursorId,"keys",3,"COMPOSITE","ID5")=""
    . . . . . . . . . . . . . . . . . . . . . . . FOR  SET %ydboctocursor(cursorId,"keys",3,"COMPOSITE","ID5")=$ORDER(^%ydboctoxref("COMPOSITE","NAME",%ydboctocursor(cursorId,"keys",3,"COMPOSITE","NAME"),%ydboctocursor(cursorId,"keys",3,"COMPOSITE","ID0"),%ydboctocursor(cursorId,"keys",3,"COMPOSITE","ID1"),%ydboctocursor(cursorId,"keys",3,"COMPOSITE","ID2"),%ydboctocursor(cursorId,"keys",3,"COMPOSITE","ID3"),%ydboctocursor(cursorId,"keys",3,"COMPOSITE","ID4"),%ydboctocursor(cursorId,"keys",3,"COMPOSITE","ID5"))) QUIT:(%ydboctocursor(cursorId,"keys",3,"COMPOSITE","ID5")="")  DO
    . . . . . . . . . . . . . . . . . . . . . . . . SET %ydboctocursor(cursorId,"keys",3,"COMPOSITE","ID6")=""
    . . . . . . . . . . . . . . . . . . . . . . . . FOR  SET %ydboctocursor(cursorId,"keys",3,"COMPOSITE","ID6")=$ORDER(^%ydboctoxref("COMPOSITE","NAME",%ydboctocursor(cursorId,"keys",3,"COMPOSITE","NAME"),%ydboctocursor(cursorId,"keys",3,"COMPOSITE","ID0"),%ydboctocursor(cursorId,"keys",3,"COMPOSITE","ID1"),%ydboctocursor(cursorId,"keys",3,"COMPOSITE","ID2"),%ydboctocursor(cursorId,"keys",3,"COMPOSITE","ID3"),%ydboctocursor(cursorId,"keys",3,"COMPOSITE","ID4"),%ydboctocursor(cursorId,"keys",3,"COMPOSITE","ID5"),%ydboctocursor(cursorId,"keys",3,"COMPOSITE","ID6"))) QUIT:(%ydboctocursor(cursorId,"keys",3,"COMPOSITE","ID6")="")  DO
    . . . . . . . . . . . . . . . . . . . . . . . . . SET %ydboctocursor(cursorId,"keys",3,"COMPOSITE","ID7")=""
    . . . . . . . . . . . . . . . . . . . . . . . . . FOR  SET %ydboctocursor(cursorId,"keys",3,"COMPOSITE","ID7")=$ORDER(^%ydboctoxref("COMPOSITE","NAME",%ydboctocursor(cursorId,"keys",3,"COMPOSITE","NAME"),%ydboctocursor(cursorId,"keys",3,"COMPOSITE","ID0"),%ydboctocursor(cursorId,"keys",3,"COMPOSITE","ID1"),%ydboctocursor(cursorId,"keys",3,"COMPOSITE","ID2"),%ydboctocursor(cursorId,"keys",3,"COMPOSITE","ID3"),%ydboctocursor(cursorId,"keys",3,"COMPOSITE","ID4"),%ydboctocursor(cursorId,"keys",3,"COMPOSITE","ID5"),%ydboctocursor(cursorId,"keys",3,"COMPOSITE","ID6"),%ydboctocursor(cursorId,"keys",3,"COMPOSITE","ID7"))) QUIT:(%ydboctocursor(cursorId,"keys",3,"COMPOSITE","ID7")="")  DO
    . . . . . . . . . . . . . . . . . . . . . . . . . . NEW %ydboctobool SET %ydboctobool=1
    . . . . . . . . . . . . . . . . . . . . . . . . . . SET %ydboctobool=(%ydboctocursor(cursorId,"keys",1,"COMPOSITE","ID1")<(+$GET(%ydboctocursor(cursorId,"parameters",5))))
    . . . . . . . . . . . . . . . . . . . . . . . . . . SET %ydboctobool=%ydboctobool&('$DATA(%ydboctozduplicate(5,%ydboctocursor(cursorId,"keys",1,"COMPOSITE","ID0"),%ydboctocursor(cursorId,"keys",1,"COMPOSITE","ID1"),%ydboctocursor(cursorId,"keys",1,"COMPOSITE","ID2"),%ydboctocursor(cursorId,"keys",1,"COMPOSITE","ID3"),%ydboctocursor(cursorId,"keys",1,"COMPOSITE","ID4"),%ydboctocursor(cursorId,"keys",1,"COMPOSITE","ID5"),%ydboctocursor(cursorId,"keys",1,"COMPOSITE","ID6"),%ydboctocursor(cursorId,"keys",1,"COMPOSITE","ID7"),%ydboctocursor(cursorId,"keys",2,"COMPOSITE","ID0"),%ydboctocursor(cursorId,"keys",2,"COMPOSITE","ID1"),%ydboctocursor(cursorId,"keys",2,"COMPOSITE","ID2"),%ydboctocursor(cursorId,"keys",2,"COMPOSITE","ID3"),%ydboctocursor(cursorId,"keys",2,"COMPOSITE","ID4"),%ydboctocursor(cursorId,"keys",2,"COMPOSITE","ID5"),%ydboctocursor(cursorId,"keys",2,"COMPOSITE","ID6"),%ydboctocursor(cursorId,"keys",2,"COMPOSITE","ID7"),%ydboctocursor(cursorId,"keys",3,"COMPOSITE","ID0"),%ydboctocursor(cursorId,"keys",3,"COMPOSITE","ID1"),%ydboctocursor(cursorId,"keys",3,"COMPOSITE","ID2"),%ydboctocursor(cursorId,"keys",3,"COMPOSITE","ID3"),%ydboctocursor(cursorId,"keys",3,"COMPOSITE","ID4"),%ydboctocursor(cursorId,"keys",3,"COMPOSITE","ID5"),%ydboctocursor(cursorId,"keys",3,"COMPOSITE","ID6"),%ydboctocursor(cursorId,"keys",3,"COMPOSITE","ID7"))))
    . . . . . . . . . . . . . . . . . . . . . . . . . . IF %ydboctobool DO
    . . . . . . . . . . . . . . . . . . . . . . . . . . . SET:1&$INCREMENT(%ydboctocursor(cursorId,"keys",5,"","")) %ydboctoz=42
    . . . . . . . . . . . . . . . . . . . . . . . . . . . SET %ydboctocursor(cursorId,"keys",5,"","",%ydboctocursor(cursorId,"keys",5,"",""))=$$str2mval^%ydboctoplanhelpers($PIECE($GET(^composite(%ydboctocursor(cursorId,"keys",1,"COMPOSITE","ID0"),%ydboctocursor(cursorId,"keys",1,"COMPOSITE","ID1"),%ydboctocursor(cursorId,"keys",1,"COMPOSITE","ID2"),%ydboctocursor(cursorId,"keys",1,"COMPOSITE","ID3"),%ydboctocursor(cursorId,"keys",1,"COMPOSITE","ID4"),%ydboctocursor(cursorId,"keys",1,"COMPOSITE","ID5"),%ydboctocursor(cursorId,"keys",1,"COMPOSITE","ID6"),%ydboctocursor(cursorId,"keys",1,"COMPOSITE","ID7"))),"|",1))
    . . . . . . . . . . . . . . . . . . . . . . . . . . . SET %ydboctozduplicate(5,%ydboctocursor(cursorId,"keys",1,"COMPOSITE","ID0"),%ydboctocursor(cursorId,"keys",1,"COMPOSITE","ID1"),%ydboctocursor(cursorId,"keys",1,"COMPOSITE","ID2"),%ydboctocursor(cursorId,"keys",1,"COMPOSITE","ID3"),%ydboctocursor(cursorId,"keys",1,"COMPOSITE","ID4"),%ydboctocursor(cursorId,"keys",1,"COMPOSITE","ID5"),%ydboctocursor(cursorId,"keys",1,"COMPOSITE","ID6"),%ydboctocursor(cursorId,"keys",1,"COMPOSITE","ID7"),%ydboctocursor(cursorId,"keys",2,"COMPOSITE","ID0"),%ydboctocursor(cursorId,"keys",2,"COMPOSITE","ID1"),%ydboctocursor(cursorId,"keys",2,"COMPOSITE","ID2"),%ydboctocursor(cursorId,"keys",2,"COMPOSITE","ID3"),%ydboctocursor(cursorId,"keys",2,"COMPOSITE","ID4"),%ydboctocursor(cursorId,"keys",2,"COMPOSITE","ID5"),%ydboctocursor(cursorId,"keys",2,"COMPOSITE","ID6"),%ydboctocursor(cursorId,"keys",2,"COMPOSITE","ID7"),%ydboctocursor(cursorId,"keys",3,"COMPOSITE","ID0"),%ydboctocursor(cursorId,"keys",3,"COMPOSITE","ID1"),%ydboctocursor(cursorId,"keys",3,"COMPOSITE","ID2"),%ydboctocursor(cursorId,"keys",3,"COMPOSITE","ID3"),%ydboctocursor(cursorId,"keys",3,"COMPOSITE","ID4"),%ydboctocursor(cursorId,"keys",3,"COMPOSITE","ID5"),%ydboctocursor(cursorId,"keys",3,"COMPOSITE","ID6"),%ydboctocursor(cursorId,"keys",3,"COMPOSITE","ID7"))=1
    KILL %ydboctozduplicate(5)
    QUIT
