
-- TERR023 : OCTO345 : Issue error for type mismatch between expression and function return type

select ABS(-id)+(select firstname from names limit 1) as absid from names;

[ERROR] PATH:LINENUM DATE TIME : Type VARCHAR not compatible for arithmetic operations
Error with syntax near (line 1, column 25):

select ABS(-id)+(select firstname from names limit 1) as absid from names;
                        ^^^^^^^^^
[ERROR] PATH:LINENUM DATE TIME : Error parsing statement: select ABS(-id)+(select firstname from names limit 1) as absid from names;
