
-- TERR013 : Issue error when column name in query is ambiguous (due to multiple columns with same name)

-- OCTO364

-- Below query should work fine because there is no explicit column reference
SELECT * FROM (SELECT * FROM names n1, names n2) n3;

-- Below queries should not work fine because there is an explicit ambiguous column reference
SELECT * FROM (SELECT * FROM names n1, names n2) n3 WHERE firstName = 'Zero';
SELECT * FROM (SELECT * FROM names n1, names n2) n3 WHERE n3.firstName = 'Zero';

-- Below queries should not work fine because there is an implicit ambiguous column reference (due to the NATURAL JOIN)
SELECT * FROM (SELECT * FROM names n1, names n2) n3 NATURAL JOIN names n4;
SELECT * FROM (SELECT * FROM names n1, names n2) n3 NATURAL JOIN names n4 WHERE n4.firstName = 'Zero';
SELECT * FROM names n3 NATURAL JOIN (SELECT * FROM names n1, names n2) n4;
SELECT * FROM names n3 NATURAL JOIN (SELECT * FROM names n1, names n2) n4 WHERE n4.firstName = 'Zero';

-- Below queries should not work fine because there is implicit ambiguous column reference (due to the NATURAL JOIN)
--	as well as a duplicate table alias name (n3)
SELECT * FROM (SELECT * FROM names n1, names n2) n3 NATURAL JOIN names n3;
SELECT * FROM (SELECT * FROM names n1, names n2) n3 NATURAL JOIN names n3 WHERE n3.firstName = 'Zero';
SELECT * FROM names n3 NATURAL JOIN (SELECT * FROM names n1, names n2) n3;
SELECT * FROM names n3 NATURAL JOIN (SELECT * FROM names n1, names n2) n3 WHERE n3.firstName = 'Zero';

-- OCTO489

SELECT id AS col, firstname AS col from names ORDER BY col;
SELECT id AS id, firstname AS id from names ORDER BY id;
SELECT id FROM names n1 INNER JOIN names n2 ON n1.id < n2.id;
SELECT n1.id FROM names n1 INNER JOIN names n2 ON n1.id = (SELECT id);
SELECT a.lastname FROM names a LEFT JOIN names b ON id = 3;

0|Zero|Cool|0|Zero|Cool
0|Zero|Cool|1|Acid|Burn
0|Zero|Cool|2|Cereal|Killer
0|Zero|Cool|3|Lord|Nikon
0|Zero|Cool|4|Joey|
0|Zero|Cool|5|Zero|Cool
1|Acid|Burn|0|Zero|Cool
1|Acid|Burn|1|Acid|Burn
1|Acid|Burn|2|Cereal|Killer
1|Acid|Burn|3|Lord|Nikon
1|Acid|Burn|4|Joey|
1|Acid|Burn|5|Zero|Cool
2|Cereal|Killer|0|Zero|Cool
2|Cereal|Killer|1|Acid|Burn
2|Cereal|Killer|2|Cereal|Killer
2|Cereal|Killer|3|Lord|Nikon
2|Cereal|Killer|4|Joey|
2|Cereal|Killer|5|Zero|Cool
3|Lord|Nikon|0|Zero|Cool
3|Lord|Nikon|1|Acid|Burn
3|Lord|Nikon|2|Cereal|Killer
3|Lord|Nikon|3|Lord|Nikon
3|Lord|Nikon|4|Joey|
3|Lord|Nikon|5|Zero|Cool
4|Joey||0|Zero|Cool
4|Joey||1|Acid|Burn
4|Joey||2|Cereal|Killer
4|Joey||3|Lord|Nikon
4|Joey||4|Joey|
4|Joey||5|Zero|Cool
5|Zero|Cool|0|Zero|Cool
5|Zero|Cool|1|Acid|Burn
5|Zero|Cool|2|Cereal|Killer
5|Zero|Cool|3|Lord|Nikon
5|Zero|Cool|4|Joey|
5|Zero|Cool|5|Zero|Cool
[ERROR] PATH:LINENUM DATE TIME : Ambiguous column name "FIRSTNAME": qualify name for safe execution
Error with syntax near (line 1, column 23):

SELECT * FROM (SELECT * FROM names n1, names n2) n3 WHERE firstName = 'Zero';
                      ^
Error with syntax near (line 1, column 59):

SELECT * FROM (SELECT * FROM names n1, names n2) n3 WHERE firstName = 'Zero';
                                                          ^^^^^^^^^
[ERROR] PATH:LINENUM DATE TIME : Error parsing statement: SELECT * FROM (SELECT * FROM names n1, names n2) n3 WHERE firstName = 'Zero';
[ERROR] PATH:LINENUM DATE TIME : Ambiguous column name "FIRSTNAME": qualify name for safe execution
Error with syntax near (line 1, column 50):

SELECT * FROM (SELECT * FROM names n1, names n2) n3 WHERE n3.firstName = 'Zero';
                                                 ^^
Error with syntax near (line 1, column 59):

SELECT * FROM (SELECT * FROM names n1, names n2) n3 WHERE n3.firstName = 'Zero';
                                                          ^^^^^^^^^^^^
[ERROR] PATH:LINENUM DATE TIME : Error parsing statement: SELECT * FROM (SELECT * FROM names n1, names n2) n3 WHERE n3.firstName = 'Zero';
[ERROR] PATH:LINENUM DATE TIME : Common column name "ID" appears more than once in left side of NATURAL JOIN
[ERROR] PATH:LINENUM DATE TIME : Error parsing statement: SELECT * FROM (SELECT * FROM names n1, names n2) n3 NATURAL JOIN names n4;
[ERROR] PATH:LINENUM DATE TIME : Common column name "ID" appears more than once in left side of NATURAL JOIN
[ERROR] PATH:LINENUM DATE TIME : Error parsing statement: SELECT * FROM (SELECT * FROM names n1, names n2) n3 NATURAL JOIN names n4 WHERE n4.firstName = 'Zero';
[ERROR] PATH:LINENUM DATE TIME : Common column name "ID" appears more than once in right side of NATURAL JOIN
[ERROR] PATH:LINENUM DATE TIME : Error parsing statement: SELECT * FROM names n3 NATURAL JOIN (SELECT * FROM names n1, names n2) n4;
[ERROR] PATH:LINENUM DATE TIME : Common column name "ID" appears more than once in right side of NATURAL JOIN
[ERROR] PATH:LINENUM DATE TIME : Error parsing statement: SELECT * FROM names n3 NATURAL JOIN (SELECT * FROM names n1, names n2) n4 WHERE n4.firstName = 'Zero';
[ERROR] PATH:LINENUM DATE TIME : table name "N3" specified more than once
[ERROR] PATH:LINENUM DATE TIME : Error parsing statement: --	as well as a duplicate table alias name (n3)
SELECT * FROM (SELECT * FROM names n1, names n2) n3 NATURAL JOIN names n3;
[ERROR] PATH:LINENUM DATE TIME : table name "N3" specified more than once
[ERROR] PATH:LINENUM DATE TIME : Error parsing statement: SELECT * FROM (SELECT * FROM names n1, names n2) n3 NATURAL JOIN names n3 WHERE n3.firstName = 'Zero';
[ERROR] PATH:LINENUM DATE TIME : table name "N3" specified more than once
[ERROR] PATH:LINENUM DATE TIME : Error parsing statement: SELECT * FROM names n3 NATURAL JOIN (SELECT * FROM names n1, names n2) n3;
[ERROR] PATH:LINENUM DATE TIME : table name "N3" specified more than once
[ERROR] PATH:LINENUM DATE TIME : Error parsing statement: SELECT * FROM names n3 NATURAL JOIN (SELECT * FROM names n1, names n2) n3 WHERE n3.firstName = 'Zero';
[ERROR] PATH:LINENUM DATE TIME : Ambiguous column name "COL": qualify name for safe execution
Error with syntax near (line 1, column 56):

SELECT id AS col, firstname AS col from names ORDER BY col;
                                                       ^^^
[ERROR] PATH:LINENUM DATE TIME : Error parsing statement: SELECT id AS col, firstname AS col from names ORDER BY col;
[ERROR] PATH:LINENUM DATE TIME : Ambiguous column name "ID": qualify name for safe execution
Error with syntax near (line 1, column 54):

SELECT id AS id, firstname AS id from names ORDER BY id;
                                                     ^^
[ERROR] PATH:LINENUM DATE TIME : Error parsing statement: SELECT id AS id, firstname AS id from names ORDER BY id;
[ERROR] PATH:LINENUM DATE TIME : Ambiguous column name "ID": qualify name for safe execution
Error with syntax near (line 1, column 8):

SELECT id FROM names n1 INNER JOIN names n2 ON n1.id < n2.id;
       ^^
[ERROR] PATH:LINENUM DATE TIME : Error parsing statement: SELECT id FROM names n1 INNER JOIN names n2 ON n1.id < n2.id;
[ERROR] PATH:LINENUM DATE TIME : Ambiguous column name "ID": qualify name for safe execution
Error with syntax near (line 1, column 67):

SELECT n1.id FROM names n1 INNER JOIN names n2 ON n1.id = (SELECT id);
                                                                  ^^
[ERROR] PATH:LINENUM DATE TIME : Error parsing statement: SELECT n1.id FROM names n1 INNER JOIN names n2 ON n1.id = (SELECT id);
[ERROR] PATH:LINENUM DATE TIME : Ambiguous column name "ID": qualify name for safe execution
Error with syntax near (line 1, column 53):

SELECT a.lastname FROM names a LEFT JOIN names b ON id = 3;
                                                    ^^
[ERROR] PATH:LINENUM DATE TIME : Error parsing statement: SELECT a.lastname FROM names a LEFT JOIN names b ON id = 3;
