
-- TGB05 : OCTO55 : Edge case GROUP BY and/or HAVING queries that work in Octo but do not in Postgres

--> Below query does NOT error out in Octo because aggregate functions used in WHERE clause of the outer-query
-->	is actually inside the HAVING clause of a sub-query.
--> But it errors out in Postgres with "ERROR:  aggregate functions are not allowed in WHERE".
SELECT * FROM names n1 WHERE n1.firstName IN (SELECT n2.firstname FROM names n2 GROUP BY n2.firstname HAVING n2.firstname = MAX(n1.firstname));

0|Zero|Cool
1|Acid|Burn
2|Cereal|Killer
3|Lord|Nikon
4|Joey|
5|Zero|Cool
