OCTO> select pastas.id, firstName, lastName, pastaName from names4
OCTO> inner join pastas on pastas.pastaName = names4.favoritePasta
OCTO> order by pastas.id desc;
9|Zero|Cool|Pappardelle
9|Joey||Pappardelle
8|Zero|Lame|Lasagna
7|Acid|House|Orechiette
6|Cereal|Killer|Penne
5|Lord|Nikon|Rotini
5|Zero|Day|Rotini
1|Acid|Burn|Cavatelli
1|Bobby|Buttons|Cavatelli
1|Betty|Buttons|Cavatelli
OCTO> 
