-------------------------------------------------------------------------
 --> Running query (row limit: 3): select * from names; <--
-------------------------------------------------------------------------
0|Zero|Cool
1|Acid|Burn
2|Cereal|Killer
-------------------------------------------------------------------------
 --> Running query (row limit: 0): select * from names; <--
-------------------------------------------------------------------------
0|Zero|Cool
1|Acid|Burn
2|Cereal|Killer
3|Lord|Nikon
4|Joey|
5|Zero|Cool
-------------------------------------------------------------------------
 --> Running query (row limit: 1): select * from names where firstname = 'Zero'; <--
-------------------------------------------------------------------------
0|Zero|Cool
