[IP_UNSET:PORT_UNSET] [ INFO] PATH:LINENUM DATE TIME : Loaded config from $PWD/octo.conf
[IP_UNSET:PORT_UNSET] [ INFO] PATH:LINENUM DATE TIME : [PORT]
[IP_UNSET:PORT_UNSET] [ INFO] PATH:LINENUM DATE TIME : rocto server process forked with pid PID
[IP_UNSET:PORT_UNSET] [ INFO] PATH:LINENUM DATE TIME : rocto server process forked with pid PID
[IP_UNSET:PORT_UNSET] [ INFO] PATH:LINENUM DATE TIME : rocto server process forked with pid PID
[IP_UNSET:PORT_UNSET] [ INFO] PATH:LINENUM DATE TIME : rocto server process forked with pid PID
[IP_UNSET:PORT_UNSET] [ INFO] PATH:LINENUM DATE TIME : rocto server process forked with pid PID
[IP_UNSET:PORT_UNSET] [ INFO] PATH:LINENUM DATE TIME : rocto server process forked with pid PID
[IP_UNSET:PORT_UNSET] [ INFO] PATH:LINENUM DATE TIME : rocto server process forked with pid PID
[IP_UNSET:PORT_UNSET] [ INFO] PATH:LINENUM DATE TIME : rocto server process forked with pid PID
[IP_UNSET:PORT_UNSET] [ INFO] PATH:LINENUM DATE TIME : rocto server process forked with pid PID
[IP_UNSET:PORT_UNSET] [ INFO] PATH:LINENUM DATE TIME : rocto server process forked with pid PID
[SOCKET] [ INFO] PATH:LINENUM DATE TIME : CancelRequest: invalid length value 53: must be 16
[SOCKET] [ INFO] PATH:LINENUM DATE TIME : CancelRequest: invalid length value 53: must be 16
[SOCKET] [ INFO] PATH:LINENUM DATE TIME : CancelRequest: invalid length value 53: must be 16
[SOCKET] [ INFO] PATH:LINENUM DATE TIME : CancelRequest: invalid length value 53: must be 16
[SOCKET] [ INFO] PATH:LINENUM DATE TIME : CancelRequest: invalid length value 53: must be 16
[SOCKET] [ INFO] PATH:LINENUM DATE TIME : CancelRequest: invalid length value 53: must be 16
[SOCKET] [ INFO] PATH:LINENUM DATE TIME : CancelRequest: invalid length value 53: must be 16
[SOCKET] [ INFO] PATH:LINENUM DATE TIME : CancelRequest: invalid length value 53: must be 16
[SOCKET] [ INFO] PATH:LINENUM DATE TIME : CancelRequest: invalid length value 53: must be 16
[SOCKET] [ INFO] PATH:LINENUM DATE TIME : CancelRequest: invalid length value 53: must be 16
[SOCKET] [ INFO] PATH:LINENUM DATE TIME : Client connected
[SOCKET] [ INFO] PATH:LINENUM DATE TIME : Client connected
[SOCKET] [ INFO] PATH:LINENUM DATE TIME : Client connected
[SOCKET] [ INFO] PATH:LINENUM DATE TIME : Client connected
[SOCKET] [ INFO] PATH:LINENUM DATE TIME : Client connected
[SOCKET] [ INFO] PATH:LINENUM DATE TIME : Client connected
[SOCKET] [ INFO] PATH:LINENUM DATE TIME : Client connected
[SOCKET] [ INFO] PATH:LINENUM DATE TIME : Client connected
[SOCKET] [ INFO] PATH:LINENUM DATE TIME : Client connected
[SOCKET] [ INFO] PATH:LINENUM DATE TIME : Client connected
[SOCKET] [ INFO] PATH:LINENUM DATE TIME : handle_password_message: user successfully authenticated
[SOCKET] [ INFO] PATH:LINENUM DATE TIME : handle_password_message: user successfully authenticated
[SOCKET] [ INFO] PATH:LINENUM DATE TIME : handle_password_message: user successfully authenticated
[SOCKET] [ INFO] PATH:LINENUM DATE TIME : handle_password_message: user successfully authenticated
[SOCKET] [ INFO] PATH:LINENUM DATE TIME : handle_password_message: user successfully authenticated
[SOCKET] [ INFO] PATH:LINENUM DATE TIME : handle_password_message: user successfully authenticated
[SOCKET] [ INFO] PATH:LINENUM DATE TIME : handle_password_message: user successfully authenticated
[SOCKET] [ INFO] PATH:LINENUM DATE TIME : handle_password_message: user successfully authenticated
[SOCKET] [ INFO] PATH:LINENUM DATE TIME : handle_password_message: user successfully authenticated
[SOCKET] [ INFO] PATH:LINENUM DATE TIME : handle_password_message: user successfully authenticated
[SOCKET] [ INFO] PATH:LINENUM DATE TIME : sent ParameterStatus with parameter 'application_name' set to 'psql'
[SOCKET] [ INFO] PATH:LINENUM DATE TIME : sent ParameterStatus with parameter 'application_name' set to 'psql'
[SOCKET] [ INFO] PATH:LINENUM DATE TIME : sent ParameterStatus with parameter 'application_name' set to 'psql'
[SOCKET] [ INFO] PATH:LINENUM DATE TIME : sent ParameterStatus with parameter 'application_name' set to 'psql'
[SOCKET] [ INFO] PATH:LINENUM DATE TIME : sent ParameterStatus with parameter 'application_name' set to 'psql'
[SOCKET] [ INFO] PATH:LINENUM DATE TIME : sent ParameterStatus with parameter 'application_name' set to 'psql'
[SOCKET] [ INFO] PATH:LINENUM DATE TIME : sent ParameterStatus with parameter 'application_name' set to 'psql'
[SOCKET] [ INFO] PATH:LINENUM DATE TIME : sent ParameterStatus with parameter 'application_name' set to 'psql'
[SOCKET] [ INFO] PATH:LINENUM DATE TIME : sent ParameterStatus with parameter 'application_name' set to 'psql'
[SOCKET] [ INFO] PATH:LINENUM DATE TIME : sent ParameterStatus with parameter 'application_name' set to 'psql'
[SOCKET] [ INFO] PATH:LINENUM DATE TIME : sent ParameterStatus with parameter 'client_encoding' set to 'UTF8'
[SOCKET] [ INFO] PATH:LINENUM DATE TIME : sent ParameterStatus with parameter 'client_encoding' set to 'UTF8'
[SOCKET] [ INFO] PATH:LINENUM DATE TIME : sent ParameterStatus with parameter 'client_encoding' set to 'UTF8'
[SOCKET] [ INFO] PATH:LINENUM DATE TIME : sent ParameterStatus with parameter 'client_encoding' set to 'UTF8'
[SOCKET] [ INFO] PATH:LINENUM DATE TIME : sent ParameterStatus with parameter 'client_encoding' set to 'UTF8'
[SOCKET] [ INFO] PATH:LINENUM DATE TIME : sent ParameterStatus with parameter 'client_encoding' set to 'UTF8'
[SOCKET] [ INFO] PATH:LINENUM DATE TIME : sent ParameterStatus with parameter 'client_encoding' set to 'UTF8'
[SOCKET] [ INFO] PATH:LINENUM DATE TIME : sent ParameterStatus with parameter 'client_encoding' set to 'UTF8'
[SOCKET] [ INFO] PATH:LINENUM DATE TIME : sent ParameterStatus with parameter 'client_encoding' set to 'UTF8'
[SOCKET] [ INFO] PATH:LINENUM DATE TIME : sent ParameterStatus with parameter 'client_encoding' set to 'UTF8'
[SOCKET] [ INFO] PATH:LINENUM DATE TIME : sent ParameterStatus with parameter 'database' set to 'ydb'
[SOCKET] [ INFO] PATH:LINENUM DATE TIME : sent ParameterStatus with parameter 'database' set to 'ydb'
[SOCKET] [ INFO] PATH:LINENUM DATE TIME : sent ParameterStatus with parameter 'database' set to 'ydb'
[SOCKET] [ INFO] PATH:LINENUM DATE TIME : sent ParameterStatus with parameter 'database' set to 'ydb'
[SOCKET] [ INFO] PATH:LINENUM DATE TIME : sent ParameterStatus with parameter 'database' set to 'ydb'
[SOCKET] [ INFO] PATH:LINENUM DATE TIME : sent ParameterStatus with parameter 'database' set to 'ydb'
[SOCKET] [ INFO] PATH:LINENUM DATE TIME : sent ParameterStatus with parameter 'database' set to 'ydb'
[SOCKET] [ INFO] PATH:LINENUM DATE TIME : sent ParameterStatus with parameter 'database' set to 'ydb'
[SOCKET] [ INFO] PATH:LINENUM DATE TIME : sent ParameterStatus with parameter 'database' set to 'ydb'
[SOCKET] [ INFO] PATH:LINENUM DATE TIME : sent ParameterStatus with parameter 'database' set to 'ydb'
[SOCKET] [ INFO] PATH:LINENUM DATE TIME : sent ParameterStatus with parameter 'DateStyle' set to 'ISO, MDY'
[SOCKET] [ INFO] PATH:LINENUM DATE TIME : sent ParameterStatus with parameter 'DateStyle' set to 'ISO, MDY'
[SOCKET] [ INFO] PATH:LINENUM DATE TIME : sent ParameterStatus with parameter 'DateStyle' set to 'ISO, MDY'
[SOCKET] [ INFO] PATH:LINENUM DATE TIME : sent ParameterStatus with parameter 'DateStyle' set to 'ISO, MDY'
[SOCKET] [ INFO] PATH:LINENUM DATE TIME : sent ParameterStatus with parameter 'DateStyle' set to 'ISO, MDY'
[SOCKET] [ INFO] PATH:LINENUM DATE TIME : sent ParameterStatus with parameter 'DateStyle' set to 'ISO, MDY'
[SOCKET] [ INFO] PATH:LINENUM DATE TIME : sent ParameterStatus with parameter 'DateStyle' set to 'ISO, MDY'
[SOCKET] [ INFO] PATH:LINENUM DATE TIME : sent ParameterStatus with parameter 'DateStyle' set to 'ISO, MDY'
[SOCKET] [ INFO] PATH:LINENUM DATE TIME : sent ParameterStatus with parameter 'DateStyle' set to 'ISO, MDY'
[SOCKET] [ INFO] PATH:LINENUM DATE TIME : sent ParameterStatus with parameter 'DateStyle' set to 'ISO, MDY'
[SOCKET] [ INFO] PATH:LINENUM DATE TIME : sent ParameterStatus with parameter 'integer_datetimes' set to 'on'
[SOCKET] [ INFO] PATH:LINENUM DATE TIME : sent ParameterStatus with parameter 'integer_datetimes' set to 'on'
[SOCKET] [ INFO] PATH:LINENUM DATE TIME : sent ParameterStatus with parameter 'integer_datetimes' set to 'on'
[SOCKET] [ INFO] PATH:LINENUM DATE TIME : sent ParameterStatus with parameter 'integer_datetimes' set to 'on'
[SOCKET] [ INFO] PATH:LINENUM DATE TIME : sent ParameterStatus with parameter 'integer_datetimes' set to 'on'
[SOCKET] [ INFO] PATH:LINENUM DATE TIME : sent ParameterStatus with parameter 'integer_datetimes' set to 'on'
[SOCKET] [ INFO] PATH:LINENUM DATE TIME : sent ParameterStatus with parameter 'integer_datetimes' set to 'on'
[SOCKET] [ INFO] PATH:LINENUM DATE TIME : sent ParameterStatus with parameter 'integer_datetimes' set to 'on'
[SOCKET] [ INFO] PATH:LINENUM DATE TIME : sent ParameterStatus with parameter 'integer_datetimes' set to 'on'
[SOCKET] [ INFO] PATH:LINENUM DATE TIME : sent ParameterStatus with parameter 'integer_datetimes' set to 'on'
[SOCKET] [ INFO] PATH:LINENUM DATE TIME : sent ParameterStatus with parameter 'IntervalStyle' set to 'postgres'
[SOCKET] [ INFO] PATH:LINENUM DATE TIME : sent ParameterStatus with parameter 'IntervalStyle' set to 'postgres'
[SOCKET] [ INFO] PATH:LINENUM DATE TIME : sent ParameterStatus with parameter 'IntervalStyle' set to 'postgres'
[SOCKET] [ INFO] PATH:LINENUM DATE TIME : sent ParameterStatus with parameter 'IntervalStyle' set to 'postgres'
[SOCKET] [ INFO] PATH:LINENUM DATE TIME : sent ParameterStatus with parameter 'IntervalStyle' set to 'postgres'
[SOCKET] [ INFO] PATH:LINENUM DATE TIME : sent ParameterStatus with parameter 'IntervalStyle' set to 'postgres'
[SOCKET] [ INFO] PATH:LINENUM DATE TIME : sent ParameterStatus with parameter 'IntervalStyle' set to 'postgres'
[SOCKET] [ INFO] PATH:LINENUM DATE TIME : sent ParameterStatus with parameter 'IntervalStyle' set to 'postgres'
[SOCKET] [ INFO] PATH:LINENUM DATE TIME : sent ParameterStatus with parameter 'IntervalStyle' set to 'postgres'
[SOCKET] [ INFO] PATH:LINENUM DATE TIME : sent ParameterStatus with parameter 'IntervalStyle' set to 'postgres'
[SOCKET] [ INFO] PATH:LINENUM DATE TIME : sent ParameterStatus with parameter 'is_superuser' set to 'on'
[SOCKET] [ INFO] PATH:LINENUM DATE TIME : sent ParameterStatus with parameter 'is_superuser' set to 'on'
[SOCKET] [ INFO] PATH:LINENUM DATE TIME : sent ParameterStatus with parameter 'is_superuser' set to 'on'
[SOCKET] [ INFO] PATH:LINENUM DATE TIME : sent ParameterStatus with parameter 'is_superuser' set to 'on'
[SOCKET] [ INFO] PATH:LINENUM DATE TIME : sent ParameterStatus with parameter 'is_superuser' set to 'on'
[SOCKET] [ INFO] PATH:LINENUM DATE TIME : sent ParameterStatus with parameter 'is_superuser' set to 'on'
[SOCKET] [ INFO] PATH:LINENUM DATE TIME : sent ParameterStatus with parameter 'is_superuser' set to 'on'
[SOCKET] [ INFO] PATH:LINENUM DATE TIME : sent ParameterStatus with parameter 'is_superuser' set to 'on'
[SOCKET] [ INFO] PATH:LINENUM DATE TIME : sent ParameterStatus with parameter 'is_superuser' set to 'on'
[SOCKET] [ INFO] PATH:LINENUM DATE TIME : sent ParameterStatus with parameter 'is_superuser' set to 'on'
[SOCKET] [ INFO] PATH:LINENUM DATE TIME : sent ParameterStatus with parameter 'server_encoding' set to 'UTF8'
[SOCKET] [ INFO] PATH:LINENUM DATE TIME : sent ParameterStatus with parameter 'server_encoding' set to 'UTF8'
[SOCKET] [ INFO] PATH:LINENUM DATE TIME : sent ParameterStatus with parameter 'server_encoding' set to 'UTF8'
[SOCKET] [ INFO] PATH:LINENUM DATE TIME : sent ParameterStatus with parameter 'server_encoding' set to 'UTF8'
[SOCKET] [ INFO] PATH:LINENUM DATE TIME : sent ParameterStatus with parameter 'server_encoding' set to 'UTF8'
[SOCKET] [ INFO] PATH:LINENUM DATE TIME : sent ParameterStatus with parameter 'server_encoding' set to 'UTF8'
[SOCKET] [ INFO] PATH:LINENUM DATE TIME : sent ParameterStatus with parameter 'server_encoding' set to 'UTF8'
[SOCKET] [ INFO] PATH:LINENUM DATE TIME : sent ParameterStatus with parameter 'server_encoding' set to 'UTF8'
[SOCKET] [ INFO] PATH:LINENUM DATE TIME : sent ParameterStatus with parameter 'server_encoding' set to 'UTF8'
[SOCKET] [ INFO] PATH:LINENUM DATE TIME : sent ParameterStatus with parameter 'server_encoding' set to 'UTF8'
[SOCKET] [ INFO] PATH:LINENUM DATE TIME : sent ParameterStatus with parameter 'server_version' set to '9.6.5'
[SOCKET] [ INFO] PATH:LINENUM DATE TIME : sent ParameterStatus with parameter 'server_version' set to '9.6.5'
[SOCKET] [ INFO] PATH:LINENUM DATE TIME : sent ParameterStatus with parameter 'server_version' set to '9.6.5'
[SOCKET] [ INFO] PATH:LINENUM DATE TIME : sent ParameterStatus with parameter 'server_version' set to '9.6.5'
[SOCKET] [ INFO] PATH:LINENUM DATE TIME : sent ParameterStatus with parameter 'server_version' set to '9.6.5'
[SOCKET] [ INFO] PATH:LINENUM DATE TIME : sent ParameterStatus with parameter 'server_version' set to '9.6.5'
[SOCKET] [ INFO] PATH:LINENUM DATE TIME : sent ParameterStatus with parameter 'server_version' set to '9.6.5'
[SOCKET] [ INFO] PATH:LINENUM DATE TIME : sent ParameterStatus with parameter 'server_version' set to '9.6.5'
[SOCKET] [ INFO] PATH:LINENUM DATE TIME : sent ParameterStatus with parameter 'server_version' set to '9.6.5'
[SOCKET] [ INFO] PATH:LINENUM DATE TIME : sent ParameterStatus with parameter 'server_version' set to '9.6.5'
[SOCKET] [ INFO] PATH:LINENUM DATE TIME : sent ParameterStatus with parameter 'session_authorization' set to 'postgres'
[SOCKET] [ INFO] PATH:LINENUM DATE TIME : sent ParameterStatus with parameter 'session_authorization' set to 'postgres'
[SOCKET] [ INFO] PATH:LINENUM DATE TIME : sent ParameterStatus with parameter 'session_authorization' set to 'postgres'
[SOCKET] [ INFO] PATH:LINENUM DATE TIME : sent ParameterStatus with parameter 'session_authorization' set to 'postgres'
[SOCKET] [ INFO] PATH:LINENUM DATE TIME : sent ParameterStatus with parameter 'session_authorization' set to 'postgres'
[SOCKET] [ INFO] PATH:LINENUM DATE TIME : sent ParameterStatus with parameter 'session_authorization' set to 'postgres'
[SOCKET] [ INFO] PATH:LINENUM DATE TIME : sent ParameterStatus with parameter 'session_authorization' set to 'postgres'
[SOCKET] [ INFO] PATH:LINENUM DATE TIME : sent ParameterStatus with parameter 'session_authorization' set to 'postgres'
[SOCKET] [ INFO] PATH:LINENUM DATE TIME : sent ParameterStatus with parameter 'session_authorization' set to 'postgres'
[SOCKET] [ INFO] PATH:LINENUM DATE TIME : sent ParameterStatus with parameter 'session_authorization' set to 'postgres'
[SOCKET] [ INFO] PATH:LINENUM DATE TIME : sent ParameterStatus with parameter 'standard_conforming_strings' set to 'on'
[SOCKET] [ INFO] PATH:LINENUM DATE TIME : sent ParameterStatus with parameter 'standard_conforming_strings' set to 'on'
[SOCKET] [ INFO] PATH:LINENUM DATE TIME : sent ParameterStatus with parameter 'standard_conforming_strings' set to 'on'
[SOCKET] [ INFO] PATH:LINENUM DATE TIME : sent ParameterStatus with parameter 'standard_conforming_strings' set to 'on'
[SOCKET] [ INFO] PATH:LINENUM DATE TIME : sent ParameterStatus with parameter 'standard_conforming_strings' set to 'on'
[SOCKET] [ INFO] PATH:LINENUM DATE TIME : sent ParameterStatus with parameter 'standard_conforming_strings' set to 'on'
[SOCKET] [ INFO] PATH:LINENUM DATE TIME : sent ParameterStatus with parameter 'standard_conforming_strings' set to 'on'
[SOCKET] [ INFO] PATH:LINENUM DATE TIME : sent ParameterStatus with parameter 'standard_conforming_strings' set to 'on'
[SOCKET] [ INFO] PATH:LINENUM DATE TIME : sent ParameterStatus with parameter 'standard_conforming_strings' set to 'on'
[SOCKET] [ INFO] PATH:LINENUM DATE TIME : sent ParameterStatus with parameter 'standard_conforming_strings' set to 'on'
[SOCKET] [ INFO] PATH:LINENUM DATE TIME : sent ParameterStatus with parameter 'TimeZone' set to 'UTC'
[SOCKET] [ INFO] PATH:LINENUM DATE TIME : sent ParameterStatus with parameter 'TimeZone' set to 'UTC'
[SOCKET] [ INFO] PATH:LINENUM DATE TIME : sent ParameterStatus with parameter 'TimeZone' set to 'UTC'
[SOCKET] [ INFO] PATH:LINENUM DATE TIME : sent ParameterStatus with parameter 'TimeZone' set to 'UTC'
[SOCKET] [ INFO] PATH:LINENUM DATE TIME : sent ParameterStatus with parameter 'TimeZone' set to 'UTC'
[SOCKET] [ INFO] PATH:LINENUM DATE TIME : sent ParameterStatus with parameter 'TimeZone' set to 'UTC'
[SOCKET] [ INFO] PATH:LINENUM DATE TIME : sent ParameterStatus with parameter 'TimeZone' set to 'UTC'
[SOCKET] [ INFO] PATH:LINENUM DATE TIME : sent ParameterStatus with parameter 'TimeZone' set to 'UTC'
[SOCKET] [ INFO] PATH:LINENUM DATE TIME : sent ParameterStatus with parameter 'TimeZone' set to 'UTC'
[SOCKET] [ INFO] PATH:LINENUM DATE TIME : sent ParameterStatus with parameter 'TimeZone' set to 'UTC'
[SOCKET] [ INFO] PATH:LINENUM DATE TIME : sent ParameterStatus with parameter 'user' set to 'ydb'
[SOCKET] [ INFO] PATH:LINENUM DATE TIME : sent ParameterStatus with parameter 'user' set to 'ydb'
[SOCKET] [ INFO] PATH:LINENUM DATE TIME : sent ParameterStatus with parameter 'user' set to 'ydb'
[SOCKET] [ INFO] PATH:LINENUM DATE TIME : sent ParameterStatus with parameter 'user' set to 'ydb'
[SOCKET] [ INFO] PATH:LINENUM DATE TIME : sent ParameterStatus with parameter 'user' set to 'ydb'
[SOCKET] [ INFO] PATH:LINENUM DATE TIME : sent ParameterStatus with parameter 'user' set to 'ydb'
[SOCKET] [ INFO] PATH:LINENUM DATE TIME : sent ParameterStatus with parameter 'user' set to 'ydb'
[SOCKET] [ INFO] PATH:LINENUM DATE TIME : sent ParameterStatus with parameter 'user' set to 'ydb'
[SOCKET] [ INFO] PATH:LINENUM DATE TIME : sent ParameterStatus with parameter 'user' set to 'ydb'
[SOCKET] [ INFO] PATH:LINENUM DATE TIME : sent ParameterStatus with parameter 'user' set to 'ydb'
