OCTO> CREATE FUNCTION DOLLAR_ZWRITE(VARCHAR) RETURNS VARCHAR AS $ZWRITE;
OCTO> SELECT    n1.firstname, DOLLAR_ZWRITE(n2.firstname)
OCTO> FROM      names n1
OCTO> LEFT JOIN names n2
OCTO> ON        n1.lastname = n2.firstname;
Zero|$ZYSQLNULL
Acid|$ZYSQLNULL
Cereal|$ZYSQLNULL
Lord|$ZYSQLNULL
Joey|$ZYSQLNULL
Zero|$ZYSQLNULL
OCTO> 
