OCTO> select """
OCTO>  set ^TSC11(1)=1
OCTO> ;"
OCTO> from names;
"
 set ^TSC11(1)=1
;
"
 set ^TSC11(1)=1
;
"
 set ^TSC11(1)=1
;
"
 set ^TSC11(1)=1
;
"
 set ^TSC11(1)=1
;
"
 set ^TSC11(1)=1
;
OCTO> 
PASS: ^TSC11(1) is unset
