
-- TSO09 : UNION of SELECT and another SET operation

SELECT * FROM names n1 INNER JOIN names n2 ON n1.id = n2.id
UNION ALL
(
  SELECT id, firstName, lastName, NULL, NULL, '' FROM names
  EXCEPT ALL
  SELECT n1.id, n1.firstName, n1.lastName, NULL, NULL, ''::text FROM names n1 INNER JOIN names n2 ON n1.id = n2.id
);

0|Zero|Cool|0|Zero|Cool
1|Acid|Burn|1|Acid|Burn
2|Cereal|Killer|2|Cereal|Killer
3|Lord|Nikon|3|Lord|Nikon
4|Joey||4|Joey|
5|Zero|Cool|5|Zero|Cool
