SET extra_float_digits = 3;

----- ROCTO/JDBC -----
[SOCKET] [ INFO] PATH:LINENUM DATE TIME : Parsing done for SQL command [SET extra_float_digits = 3]
[SOCKET] [ INFO] PATH:LINENUM DATE TIME : Parsing done for SQL command [SET extra_float_digits = 3]

----- OCTO -----
