
-- TWI06 : WHERE in sub-query only references TWO parent query columns that match (variant of T0006)

SELECT *
FROM names n1
INNER JOIN names n2
ON (n1.id = n2.id)
WHERE n1.firstName IN (
  SELECT n3.firstName FROM names n3
  WHERE n1.id = n2.id
)

0|Zero|Cool|0|Zero|Cool
1|Acid|Burn|1|Acid|Burn
2|Cereal|Killer|2|Cereal|Killer
3|Lord|Nikon|3|Lord|Nikon
4|Joey||4|Joey|
5|Zero|Cool|5|Zero|Cool
;; This is a generated file; do not modify. Generated M code corresponds to below SQL query
;; ---------------------------------------------------------
;  SELECT *
;  FROM names n1
;  INNER JOIN names n2
;  ON (n1.id = n2.id)
;  WHERE n1.firstName IN (
;    SELECT n3.firstName FROM names n3
;    WHERE n1.id = n2.id
;  )
;  
;; ---------------------------------------------------------

octoPlan0(cursorId)
    DO octoPlan1(cursorId)
    QUIT

octoPlan1(cursorId)
    NEW %ydboctoz KILL %ydboctocursor(cursorId,"keys",7,"","")
    SET %ydboctocursor(cursorId,"keys",1,"NAMES","ID")=""
    FOR  SET %ydboctocursor(cursorId,"keys",1,"NAMES","ID")=$ORDER(^names(%ydboctocursor(cursorId,"keys",1,"NAMES","ID"))) QUIT:(%ydboctocursor(cursorId,"keys",1,"NAMES","ID")="")  DO
    . SET %ydboctocursor(cursorId,"keys",2,"NAMES","ID")=%ydboctocursor(cursorId,"keys",1,"NAMES","ID") IF '$ZYISSQLNULL(%ydboctocursor(cursorId,"keys",2,"NAMES","ID")) IF $DATA(^names(%ydboctocursor(cursorId,"keys",2,"NAMES","ID"))) DO
    . . DO octoPlan2(cursorId)
    . . NEW %ydboctobool SET %ydboctobool=1
    . . SET %ydboctobool=$SELECT($ZYISSQLNULL($PIECE($GET(^names(%ydboctocursor(cursorId,"keys",1,"NAMES","ID"))),"|",1)):$ZYSQLNULL,$DATA(%ydboctocursor(cursorId,"keys",6,"","",$PIECE($GET(^names(%ydboctocursor(cursorId,"keys",1,"NAMES","ID"))),"|",1))):1,$DATA(%ydboctocursor(cursorId,"keys",6,"","",$ZYSQLNULL)):$ZYSQLNULL,1:0)
    . . IF %ydboctobool DO
    . . . SET:1&$INCREMENT(%ydboctocursor(cursorId,"keys",7,"","")) %ydboctoz=42
    . . . SET %ydboctocursor(cursorId,"keys",7,"","",%ydboctocursor(cursorId,"keys",7,"",""))=$$str2mval^%ydboctoplanhelpers(%ydboctocursor(cursorId,"keys",1,"NAMES","ID"))_$$str2mval^%ydboctoplanhelpers($PIECE($GET(^names(%ydboctocursor(cursorId,"keys",1,"NAMES","ID"))),"|",1))_$$str2mval^%ydboctoplanhelpers($PIECE($GET(^names(%ydboctocursor(cursorId,"keys",1,"NAMES","ID"))),"|",2))_$$str2mval^%ydboctoplanhelpers(%ydboctocursor(cursorId,"keys",2,"NAMES","ID"))_$$str2mval^%ydboctoplanhelpers($PIECE($GET(^names(%ydboctocursor(cursorId,"keys",2,"NAMES","ID"))),"|",1))_$$str2mval^%ydboctoplanhelpers($PIECE($GET(^names(%ydboctocursor(cursorId,"keys",2,"NAMES","ID"))),"|",2))
    QUIT

octoPlan2(cursorId)
    NEW %ydboctoz KILL %ydboctocursor(cursorId,"keys",6,"","")
    SET %ydboctocursor(cursorId,"keys",3,"NAMES","ID")=""
    FOR  SET %ydboctocursor(cursorId,"keys",3,"NAMES","ID")=$ORDER(^names(%ydboctocursor(cursorId,"keys",3,"NAMES","ID"))) QUIT:(%ydboctocursor(cursorId,"keys",3,"NAMES","ID")="")  DO
    . NEW %ydboctobool SET %ydboctobool=1
    . SET %ydboctobool=(%ydboctocursor(cursorId,"keys",1,"NAMES","ID")=%ydboctocursor(cursorId,"keys",2,"NAMES","ID"))
    . IF %ydboctobool DO
    . . IF $INCREMENT(%ydboctocursor(cursorId,"keys",6,"","",$PIECE($GET(^names(%ydboctocursor(cursorId,"keys",3,"NAMES","ID"))),"|",1)))
    QUIT
