
-- TWI04 : where IN references parent from SET expression

SELECT *
FROM names a
WHERE a.firstName IN (
    SELECT b.firstName
    FROM names b
    WHERE b.id = a.id

    UNION ALL

    SELECT c.firstName
    FROM names c
    WHERE c.id = a.id
);

0|Zero|Cool
1|Acid|Burn
2|Cereal|Killer
3|Lord|Nikon
4|Joey|
5|Zero|Cool
;; This is a generated file; do not modify. Generated M code corresponds to below SQL query
;; ---------------------------------------------------------
;  SELECT *
;  FROM names a
;  WHERE a.firstName IN (
;      SELECT b.firstName
;      FROM names b
;      WHERE b.id = a.id
;  
;      UNION ALL
;  
;      SELECT c.firstName
;      FROM names c
;      WHERE c.id = a.id
;  );
;; ---------------------------------------------------------

octoPlan0(cursorId)
    DO octoPlan1(cursorId)
    QUIT

octoPlan1(cursorId)
    NEW %ydboctoz KILL %ydboctocursor(cursorId,"keys",10,"","")
    SET %ydboctocursor(cursorId,"keys",1,"NAMES","ID")=""
    FOR  SET %ydboctocursor(cursorId,"keys",1,"NAMES","ID")=$ORDER(^names(%ydboctocursor(cursorId,"keys",1,"NAMES","ID"))) QUIT:(%ydboctocursor(cursorId,"keys",1,"NAMES","ID")="")  DO
    . DO octoPlan2(cursorId)
    . DO octoPlan3(cursorId)
    . NEW %ydboctobool SET %ydboctobool=1
    . SET %ydboctobool=$SELECT($ZYISSQLNULL($PIECE($GET(^names(%ydboctocursor(cursorId,"keys",1,"NAMES","ID"))),"|",1)):$ZYSQLNULL,$DATA(%ydboctocursor(cursorId,"keys",9,"","",$PIECE($GET(^names(%ydboctocursor(cursorId,"keys",1,"NAMES","ID"))),"|",1))):1,$DATA(%ydboctocursor(cursorId,"keys",9,"","",$ZYSQLNULL)):$ZYSQLNULL,1:0)
    . IF %ydboctobool DO
    . . SET:1&$INCREMENT(%ydboctocursor(cursorId,"keys",10,"","")) %ydboctoz=42
    . . SET %ydboctocursor(cursorId,"keys",10,"","",%ydboctocursor(cursorId,"keys",10,"",""))=$$str2mval^%ydboctoplanhelpers(%ydboctocursor(cursorId,"keys",1,"NAMES","ID"))_$$str2mval^%ydboctoplanhelpers($PIECE($GET(^names(%ydboctocursor(cursorId,"keys",1,"NAMES","ID"))),"|",1))_$$str2mval^%ydboctoplanhelpers($PIECE($GET(^names(%ydboctocursor(cursorId,"keys",1,"NAMES","ID"))),"|",2))
    QUIT

octoPlan2(cursorId)
    NEW %ydboctoz KILL %ydboctocursor(cursorId,"keys",7,"","")
    SET %ydboctocursor(cursorId,"keys",2,"NAMES","ID")=%ydboctocursor(cursorId,"keys",1,"NAMES","ID") IF '$ZYISSQLNULL(%ydboctocursor(cursorId,"keys",2,"NAMES","ID")) IF $DATA(^names(%ydboctocursor(cursorId,"keys",2,"NAMES","ID"))) DO
    . NEW %ydboctobool SET %ydboctobool=1
    . IF %ydboctobool DO
    . . IF $INCREMENT(%ydboctocursor(cursorId,"keys",7,"","",$PIECE($GET(^names(%ydboctocursor(cursorId,"keys",2,"NAMES","ID"))),"|",1)))
    QUIT

octoPlan3(cursorId)
    NEW %ydboctoz KILL %ydboctocursor(cursorId,"keys",8,"","")
    SET %ydboctocursor(cursorId,"keys",4,"NAMES","ID")=%ydboctocursor(cursorId,"keys",1,"NAMES","ID") IF '$ZYISSQLNULL(%ydboctocursor(cursorId,"keys",4,"NAMES","ID")) IF $DATA(^names(%ydboctocursor(cursorId,"keys",4,"NAMES","ID"))) DO
    . NEW %ydboctobool SET %ydboctobool=1
    . IF %ydboctobool DO
    . . IF $INCREMENT(%ydboctocursor(cursorId,"keys",8,"","",$PIECE($GET(^names(%ydboctocursor(cursorId,"keys",4,"NAMES","ID"))),"|",1)))
    DO columnkeyUNIONALL^%ydboctoplanhelpers(7,8,9)
    QUIT
