OCTO> SELECT * FROM names AS t1
OCTO> CROSS JOIN names AS t2
OCTO> WHERE t1.firstName <> 'Charles'
OCTO>   AND t2.firstName <> 'Charles'
OCTO>   AND t1.id = t2.id;
0|Zero|Cool|0|Zero|Cool
1|Acid|Burn|1|Acid|Burn
2|Cereal|Killer|2|Cereal|Killer
3|Lord|Nikon|3|Lord|Nikon
4|Joey||4|Joey|
5|Zero|Cool|5|Zero|Cool
OCTO> 
;; This is a generated file; do not modify. Generated M code corresponds to below SQL query
;; ---------------------------------------------------------
;  SELECT * FROM names AS t1
;  CROSS JOIN names AS t2
;  WHERE t1.firstName <> 'Charles'
;    AND t2.firstName <> 'Charles'
;    AND t1.id = t2.id;
;; ---------------------------------------------------------

octoPlan0(cursorId)
    DO octoPlan1(cursorId)
    QUIT

octoPlan1(cursorId)
    NEW %ydboctoz KILL %ydboctocursor(cursorId,"keys",4,"","")
    SET %ydboctocursor(cursorId,"keys",1,"NAMES","ID")=""
    FOR  SET %ydboctocursor(cursorId,"keys",1,"NAMES","ID")=$ORDER(^names(%ydboctocursor(cursorId,"keys",1,"NAMES","ID"))) QUIT:(%ydboctocursor(cursorId,"keys",1,"NAMES","ID")="")  DO
    . SET %ydboctocursor(cursorId,"keys",2,"NAMES","ID")=%ydboctocursor(cursorId,"keys",1,"NAMES","ID") IF '$ZYISSQLNULL(%ydboctocursor(cursorId,"keys",2,"NAMES","ID")) IF $DATA(^names(%ydboctocursor(cursorId,"keys",2,"NAMES","ID"))) DO
    . . NEW %ydboctobool SET %ydboctobool=1
    . . SET %ydboctobool=($PIECE($GET(^names(%ydboctocursor(cursorId,"keys",1,"NAMES","ID"))),"|",1)'=$GET(%ydboctocursor(cursorId,"parameters",3)))
    . . SET %ydboctobool(1)=%ydboctobool
    . . SET %ydboctobool=($PIECE($GET(^names(%ydboctocursor(cursorId,"keys",2,"NAMES","ID"))),"|",1)'=$GET(%ydboctocursor(cursorId,"parameters",4)))
    . . SET %ydboctobool=%ydboctobool(1)&%ydboctobool
    . . IF %ydboctobool DO
    . . . SET:1&$INCREMENT(%ydboctocursor(cursorId,"keys",4,"","")) %ydboctoz=42
    . . . SET %ydboctocursor(cursorId,"keys",4,"","",%ydboctocursor(cursorId,"keys",4,"",""))=$$str2mval^%ydboctoplanhelpers(%ydboctocursor(cursorId,"keys",1,"NAMES","ID"))_$$str2mval^%ydboctoplanhelpers($PIECE($GET(^names(%ydboctocursor(cursorId,"keys",1,"NAMES","ID"))),"|",1))_$$str2mval^%ydboctoplanhelpers($PIECE($GET(^names(%ydboctocursor(cursorId,"keys",1,"NAMES","ID"))),"|",2))_$$str2mval^%ydboctoplanhelpers(%ydboctocursor(cursorId,"keys",2,"NAMES","ID"))_$$str2mval^%ydboctoplanhelpers($PIECE($GET(^names(%ydboctocursor(cursorId,"keys",2,"NAMES","ID"))),"|",1))_$$str2mval^%ydboctoplanhelpers($PIECE($GET(^names(%ydboctocursor(cursorId,"keys",2,"NAMES","ID"))),"|",2))
    QUIT
